\relax 
\providecommand\hyper@newdestlabel[2]{}
\citation{strekalov_nonlinear_2016}
\@writefile{toc}{\contentsline {chapter}{\numberline {3}Experimental Discussion}{12}{chapter.3}}
\@writefile{lof}{\addvspace {10\p@ }}
\@writefile{lot}{\addvspace {10\p@ }}
\@writefile{toc}{\contentsline {section}{\numberline {3.1}Set Up}{12}{section.3.1}}
\newlabel{fig:setupschem1}{{3.1a}{13}{The light coupled into the resonator through the prism undergoes total internal reflection as it moves around the resonator.\newline \relax }{figure.caption.13}{}}
\newlabel{sub@fig:setupschem1}{{a}{13}{The light coupled into the resonator through the prism undergoes total internal reflection as it moves around the resonator.\newline \relax }{figure.caption.13}{}}
\newlabel{fig:setupschem2}{{3.1b}{13}{The substrate is now moved into proximity of the WGMR. This has caused a frequency shift.\newline \relax }{figure.caption.13}{}}
\newlabel{sub@fig:setupschem2}{{b}{13}{The substrate is now moved into proximity of the WGMR. This has caused a frequency shift.\newline \relax }{figure.caption.13}{}}
\@writefile{lof}{\contentsline {figure}{\numberline {3.1}{\ignorespaces A schematic showing the experiment method. Notice that the presence of the substrate in (b) has caused a change in the points where the light wave undergoes total internal reflection. This will change what frequencies in the resonator constructively interfere, meaning the resonant frequencies have now changed. This is indicated by the green line (diagram not to scale).\relax }}{13}{figure.caption.13}}
\newlabel{fig:setupschem}{{3.1}{13}{A schematic showing the experiment method. Notice that the presence of the substrate in (b) has caused a change in the points where the light wave undergoes total internal reflection. This will change what frequencies in the resonator constructively interfere, meaning the resonant frequencies have now changed. This is indicated by the green line (diagram not to scale).\relax }{figure.caption.13}{}}
\@writefile{toc}{\contentsline {section}{\numberline {3.2}Nanocube Discussion}{13}{section.3.2}}
\@writefile{lof}{\contentsline {figure}{\numberline {3.2}{\ignorespaces Image of the components that control the laser coupling to free air interaction.\newline  \relax }}{14}{figure.caption.14}}
\newlabel{fig:pigtail}{{3.2}{14}{Image of the components that control the laser coupling to free air interaction.\newline \relax }{figure.caption.14}{}}
\@writefile{lof}{\contentsline {figure}{\numberline {3.3}{\ignorespaces Front panel of the nanocube controller. The position of the y-axis is currently at \SI {0}{\micro \meter } and the servo controlling the y-axis is currently switched on.\newline  \relax }}{15}{figure.caption.15}}
\newlabel{fig:nanocubecontroller}{{3.3}{15}{Front panel of the nanocube controller. The position of the y-axis is currently at \SI {0}{\micro \meter } and the servo controlling the y-axis is currently switched on.\newline \relax }{figure.caption.15}{}}
\@writefile{toc}{\contentsline {section}{\numberline {3.3}Nanocube Calibration}{15}{section.3.3}}
\newlabel{nanocalibration}{{3.3}{15}{Nanocube Calibration}{section.3.3}{}}
\citation{phillip_kramers-kronig_1964}
\@writefile{lof}{\contentsline {figure}{\numberline {3.4}{\ignorespaces Calibration results with a sine curve fit.\relax }}{16}{figure.caption.16}}
\newlabel{fig:michel}{{3.4}{16}{Calibration results with a sine curve fit.\relax }{figure.caption.16}{}}
\@writefile{toc}{\contentsline {section}{\numberline {3.4}Attocube Discussion}{16}{section.3.4}}
\newlabel{atto}{{3.4}{16}{Attocube Discussion}{section.3.4}{}}
\@writefile{lof}{\contentsline {figure}{\numberline {3.5}{\ignorespaces The nanocube with the second attocube mounted on top of it. The rutile substrate is currently mounted on the attocube and is in close proximity to the resonator.\relax }}{17}{figure.caption.17}}
\newlabel{fig:nanoatto}{{3.5}{17}{The nanocube with the second attocube mounted on top of it. The rutile substrate is currently mounted on the attocube and is in close proximity to the resonator.\relax }{figure.caption.17}{}}
\@writefile{toc}{\contentsline {section}{\numberline {3.5}WGMR Coupling Process}{17}{section.3.5}}
\newlabel{ExpCouple}{{3.5}{17}{WGMR Coupling Process}{section.3.5}{}}
\@writefile{lof}{\contentsline {figure}{\numberline {3.6}{\ignorespaces The angle lines marked onto the table. The translator platform is lined up with the angle required for TE mode coupling.\relax }}{18}{figure.caption.18}}
\newlabel{fig:angles}{{3.6}{18}{The angle lines marked onto the table. The translator platform is lined up with the angle required for TE mode coupling.\relax }{figure.caption.18}{}}
\@writefile{toc}{\contentsline {section}{\numberline {3.6}Frequency Shift Direction}{19}{section.3.6}}
\newlabel{eq:c}{{3.1}{19}{Frequency Shift Direction}{equation.3.6.1}{}}
\@writefile{toc}{\contentsline {section}{\numberline {3.7}Automation}{19}{section.3.7}}
\newlabel{Automation}{{3.7}{19}{Automation}{section.3.7}{}}
\@writefile{lof}{\contentsline {figure}{\numberline {3.7}{\ignorespaces The breakout box with BNC cables attaching the nanocube controller and detector with the computer.\relax }}{20}{figure.caption.19}}
\newlabel{fig:breakout}{{3.7}{20}{The breakout box with BNC cables attaching the nanocube controller and detector with the computer.\relax }{figure.caption.19}{}}
\@writefile{toc}{\contentsline {subsection}{\numberline {3.7.1}Python}{20}{subsection.3.7.1}}
\@writefile{toc}{\contentsline {subsection}{\numberline {3.7.2}MATLAB}{21}{subsection.3.7.2}}
\newlabel{eq:ScaleFactor}{{3.2}{22}{MATLAB}{equation.3.7.2}{}}
\newlabel{eq:ScaleFactord}{{3.3}{22}{MATLAB}{equation.3.7.3}{}}
\@writefile{toc}{\contentsline {section}{\numberline {3.8}Substrate Mounting Orientation}{23}{section.3.8}}
\newlabel{substratemount}{{3.8}{23}{Substrate Mounting Orientation}{section.3.8}{}}
\newlabel{eq:delx}{{3.6}{23}{Substrate Mounting Orientation}{equation.3.8.6}{}}
\newlabel{fig:delx1}{{3.8a}{24}{The optimum mounting case.\\ Here $\alpha $ = \ang {0} and $\Delta y$ = $0$.\newline \relax }{figure.caption.20}{}}
\newlabel{sub@fig:delx1}{{a}{24}{The optimum mounting case.\\ Here $\alpha $ = \ang {0} and $\Delta y$ = $0$.\newline \relax }{figure.caption.20}{}}
\newlabel{fig:delx2}{{3.8b}{24}{The non-optimum case. Here there is some angle $\alpha $ which results in a distance between the substrate and the resonator $\Delta y$.\newline \relax }{figure.caption.20}{}}
\newlabel{sub@fig:delx2}{{b}{24}{The non-optimum case. Here there is some angle $\alpha $ which results in a distance between the substrate and the resonator $\Delta y$.\newline \relax }{figure.caption.20}{}}
\@writefile{lof}{\contentsline {figure}{\numberline {3.8}{\ignorespaces 2 cases that demonstrate how some angle $\alpha $ can cause a gap between the resonator and the substrate.\relax }}{24}{figure.caption.20}}
\newlabel{fig:delx}{{3.8}{24}{2 cases that demonstrate how some angle $\alpha $ can cause a gap between the resonator and the substrate.\relax }{figure.caption.20}{}}
\@writefile{toc}{\contentsline {section}{\numberline {3.9}Environmental Control}{24}{section.3.9}}
\newlabel{Tempcontrol}{{3.9}{24}{Environmental Control}{section.3.9}{}}
\@writefile{lof}{\contentsline {figure}{\numberline {3.9}{\ignorespaces This shows how the distance increases between the substrate and the resonator when not mounted at \ang {0}.\relax }}{25}{figure.caption.21}}
\newlabel{fig:dispangle}{{3.9}{25}{This shows how the distance increases between the substrate and the resonator when not mounted at \ang {0}.\relax }{figure.caption.21}{}}
\newlabel{fig:environcontrol1}{{3.10a}{25}{Plot of the fluctuations of the mode without a moving substrate or cardboard box.\relax }{figure.caption.22}{}}
\newlabel{sub@fig:environcontrol1}{{a}{25}{Plot of the fluctuations of the mode without a moving substrate or cardboard box.\relax }{figure.caption.22}{}}
\newlabel{fig:environcontrol2}{{3.10b}{25}{The same mode with a cardboard box without a moving substrate.\relax }{figure.caption.22}{}}
\newlabel{sub@fig:environcontrol2}{{b}{25}{The same mode with a cardboard box without a moving substrate.\relax }{figure.caption.22}{}}
\@writefile{lof}{\contentsline {figure}{\numberline {3.10}{\ignorespaces This shows how the inclusion of a cardboard box can dampen the fluctuations in the environment. The remaining shift present in (b) is discussed through section \ref  {Results}.\relax }}{25}{figure.caption.22}}
\newlabel{fig:environcontrol}{{3.10}{25}{This shows how the inclusion of a cardboard box can dampen the fluctuations in the environment. The remaining shift present in (b) is discussed through section \ref {Results}.\relax }{figure.caption.22}{}}
\@writefile{lof}{\contentsline {figure}{\numberline {3.11}{\ignorespaces The cardboard box around the experiment. There is a hole cut into the back to let the light through for the detector to receive.\relax }}{26}{figure.caption.23}}
\newlabel{fig:box}{{3.11}{26}{The cardboard box around the experiment. There is a hole cut into the back to let the light through for the detector to receive.\relax }{figure.caption.23}{}}
\@writefile{toc}{\contentsline {section}{\numberline {3.10}Polarisation Discussion}{26}{section.3.10}}
\newlabel{Polarisation}{{3.10}{26}{Polarisation Discussion}{section.3.10}{}}
\newlabel{fig:detectora}{{3.12a}{27}{The detector with all apparatus attached.\newline \relax }{figure.caption.24}{}}
\newlabel{sub@fig:detectora}{{a}{27}{The detector with all apparatus attached.\newline \relax }{figure.caption.24}{}}
\newlabel{fig:detectorb}{{3.12b}{27}{The detector with the beam splitter.\newline \relax }{figure.caption.24}{}}
\newlabel{sub@fig:detectorb}{{b}{27}{The detector with the beam splitter.\newline \relax }{figure.caption.24}{}}
\newlabel{fig:detectorc}{{3.12c}{27}{The detector with all apparatus removed.\newline \relax }{figure.caption.24}{}}
\newlabel{sub@fig:detectorc}{{c}{27}{The detector with all apparatus removed.\newline \relax }{figure.caption.24}{}}
\@writefile{lof}{\contentsline {figure}{\numberline {3.12}{\ignorespaces The detector shown in stages of attachment. Note the orientation of the beam splitter on the front of the detector. This shows that the detector is currently only detecting TE polarised light.\relax }}{27}{figure.caption.24}}
\newlabel{fig:detector}{{3.12}{27}{The detector shown in stages of attachment. Note the orientation of the beam splitter on the front of the detector. This shows that the detector is currently only detecting TE polarised light.\relax }{figure.caption.24}{}}
\@writefile{lof}{\contentsline {figure}{\numberline {3.13}{\ignorespaces Lithium niobate substrate with the optical axis highlighted. It is mounted upside down on the attocube so the z axis is flipped here.\relax }}{27}{figure.caption.25}}
\newlabel{fig:lithnioboptical}{{3.13}{27}{Lithium niobate substrate with the optical axis highlighted. It is mounted upside down on the attocube so the z axis is flipped here.\relax }{figure.caption.25}{}}
\@writefile{toc}{\contentsline {section}{\numberline {3.11}Data Collection Method}{28}{section.3.11}}
\newlabel{datacollection}{{3.11}{28}{Data Collection Method}{section.3.11}{}}
\@setckpt{Chapter_3}{
\setcounter{page}{29}
\setcounter{equation}{6}
\setcounter{enumi}{5}
\setcounter{enumii}{0}
\setcounter{enumiii}{0}
\setcounter{enumiv}{0}
\setcounter{footnote}{0}
\setcounter{mpfootnote}{0}
\setcounter{part}{0}
\setcounter{chapter}{3}
\setcounter{section}{11}
\setcounter{subsection}{0}
\setcounter{subsubsection}{0}
\setcounter{paragraph}{0}
\setcounter{subparagraph}{0}
\setcounter{figure}{13}
\setcounter{table}{0}
\setcounter{parentequation}{0}
\setcounter{NAT@ctr}{0}
\setcounter{ContinuedFloat}{0}
\setcounter{r@tfl@t}{0}
\setcounter{subfigure}{0}
\setcounter{subtable}{0}
\setcounter{@todonotes@numberoftodonotes}{0}
\setcounter{Item}{5}
\setcounter{Hfootnote}{0}
\setcounter{bookmark@seq@number}{26}
\setcounter{section@level}{1}
}
