\relax 
\providecommand\hyper@newdestlabel[2]{}
\@writefile{toc}{\contentsline {chapter}{\numberline {2}WGMR Fabrication}{8}{chapter.2}}
\@writefile{lof}{\addvspace {10\p@ }}
\@writefile{lot}{\addvspace {10\p@ }}
\@writefile{toc}{\contentsline {section}{\numberline {2.1}Fabrication of WGMRs}{8}{section.2.1}}
\newlabel{WGMRfabrication}{{2.1}{8}{Fabrication of WGMRs}{section.2.1}{}}
\@writefile{lof}{\contentsline {figure}{\numberline {2.1}{\ignorespaces Diagram of the cutting process taking place: A WGMR precursor is rotated by the turning machine while the cutting diamond shapes it into a resonator. The negative rake angle is illustrated.\newline  \relax }}{9}{figure.caption.10}}
\newlabel{fig:cutting}{{2.1}{9}{Diagram of the cutting process taking place: A WGMR precursor is rotated by the turning machine while the cutting diamond shapes it into a resonator. The negative rake angle is illustrated.\newline \relax }{figure.caption.10}{}}
\newlabel{fig:lathea}{{2.2a}{10}{The lathe and microscope.\newline \relax }{figure.caption.11}{}}
\newlabel{sub@fig:lathea}{{a}{10}{The lathe and microscope.\newline \relax }{figure.caption.11}{}}
\newlabel{fig:latheb}{{2.2b}{10}{Close up of the lathe showing resonator position.\newline \relax }{figure.caption.11}{}}
\newlabel{sub@fig:latheb}{{b}{10}{Close up of the lathe showing resonator position.\newline \relax }{figure.caption.11}{}}
\@writefile{lof}{\contentsline {figure}{\numberline {2.2}{\ignorespaces The Lathe\relax }}{10}{figure.caption.11}}
\newlabel{fig:lathe}{{2.2}{10}{The Lathe\relax }{figure.caption.11}{}}
\@writefile{toc}{\contentsline {section}{\numberline {2.2}Polishing of WGMRs}{10}{section.2.2}}
\newlabel{WGMRpolishing}{{2.2}{10}{Polishing of WGMRs}{section.2.2}{}}
\@writefile{lof}{\contentsline {figure}{\numberline {2.3}{\ignorespaces A range of slurries arranged by the size of the diamond particles in them. The sizes are used decreasingly from a coarse to a fine polish. The grey syringes indicate grease base instead of water base.\newline  \relax }}{11}{figure.caption.12}}
\newlabel{fig:slurry}{{2.3}{11}{A range of slurries arranged by the size of the diamond particles in them. The sizes are used decreasingly from a coarse to a fine polish. The grey syringes indicate grease base instead of water base.\newline \relax }{figure.caption.12}{}}
\@writefile{toc}{\contentsline {section}{\numberline {2.3}Cleaning of WGMRs}{11}{section.2.3}}
\newlabel{WGMRcleaning}{{2.3}{11}{Cleaning of WGMRs}{section.2.3}{}}
\@setckpt{Chapter_2}{
\setcounter{page}{12}
\setcounter{equation}{0}
\setcounter{enumi}{5}
\setcounter{enumii}{0}
\setcounter{enumiii}{0}
\setcounter{enumiv}{0}
\setcounter{footnote}{0}
\setcounter{mpfootnote}{0}
\setcounter{part}{0}
\setcounter{chapter}{2}
\setcounter{section}{3}
\setcounter{subsection}{0}
\setcounter{subsubsection}{0}
\setcounter{paragraph}{0}
\setcounter{subparagraph}{0}
\setcounter{figure}{3}
\setcounter{table}{0}
\setcounter{parentequation}{0}
\setcounter{NAT@ctr}{0}
\setcounter{ContinuedFloat}{0}
\setcounter{r@tfl@t}{0}
\setcounter{subfigure}{0}
\setcounter{subtable}{0}
\setcounter{@todonotes@numberoftodonotes}{0}
\setcounter{Item}{5}
\setcounter{Hfootnote}{0}
\setcounter{bookmark@seq@number}{12}
\setcounter{section@level}{1}
}
