\relax 
\providecommand\hyper@newdestlabel[2]{}
\citation{rayleigh_theory_1877}
\@writefile{toc}{\contentsline {chapter}{\numberline {1}Introduction}{1}{chapter.1}}
\@writefile{lof}{\addvspace {10\p@ }}
\@writefile{lot}{\addvspace {10\p@ }}
\@writefile{toc}{\contentsline {section}{\numberline {1.1}Whispering Gallery Phenomena}{1}{section.1.1}}
\newlabel{WGMRphenom}{{1.1}{1}{Whispering Gallery Phenomena}{section.1.1}{}}
\@writefile{lof}{\contentsline {figure}{\numberline {1.1}{\ignorespaces The Saint Paul's Cathedral whispering gallery that inspired Lord Rayleigh's work on whispering gallery waves. Image taken from http://www.planetware.com/london/st-pauls-cathedral-eng-l-spal.htm.\relax }}{1}{figure.caption.3}}
\providecommand*\caption@xref[2]{\@setref\relax\@undefined{#1}}
\newlabel{fig:stpauls}{{1.1}{1}{The Saint Paul's Cathedral whispering gallery that inspired Lord Rayleigh's work on whispering gallery waves. Image taken from http://www.planetware.com/london/st-pauls-cathedral-eng-l-spal.htm.\relax }{figure.caption.3}{}}
\@writefile{toc}{\contentsline {section}{\numberline {1.2}WGMR Structure}{2}{section.1.2}}
\newlabel{WGMRstructure}{{1.2}{2}{WGMR Structure}{section.1.2}{}}
\@writefile{lof}{\contentsline {figure}{\numberline {1.2}{\ignorespaces Diagram of a WGMR.\newline  \relax }}{2}{figure.caption.4}}
\newlabel{fig:wgmrschem}{{1.2}{2}{Diagram of a WGMR.\newline \relax }{figure.caption.4}{}}
\@writefile{lof}{\contentsline {figure}{\numberline {1.3}{\ignorespaces Close up on the WGMR used in the experiment. The rutile substrate and diamond coupling prism are seen to the left and right of the WGMR respectively.\relax }}{2}{figure.caption.5}}
\newlabel{fig:wgmr}{{1.3}{2}{Close up on the WGMR used in the experiment. The rutile substrate and diamond coupling prism are seen to the left and right of the WGMR respectively.\relax }{figure.caption.5}{}}
\citation{zhu_frustrated_1986}
\newlabel{eq:critical}{{1.2}{3}{WGMR Structure}{equation.1.2.2}{}}
\@writefile{lof}{\contentsline {figure}{\numberline {1.4}{\ignorespaces Interaction of light at a boundary between two media.\relax }}{3}{figure.caption.6}}
\newlabel{fig:tir}{{1.4}{3}{Interaction of light at a boundary between two media.\relax }{figure.caption.6}{}}
\@writefile{toc}{\contentsline {section}{\numberline {1.3}WGMR Coupling Theory}{3}{section.1.3}}
\newlabel{WGMRCoupling}{{1.3}{3}{WGMR Coupling Theory}{section.1.3}{}}
\@writefile{toc}{\contentsline {subsection}{\numberline {1.3.1}Frustrated Total Internal Reflection}{3}{subsection.1.3.1}}
\newlabel{FTIR}{{1.3.1}{3}{Frustrated Total Internal Reflection}{subsection.1.3.1}{}}
\@writefile{lof}{\contentsline {figure}{\numberline {1.5}{\ignorespaces Frustrated total internal reflection.\newline  \relax }}{4}{figure.caption.7}}
\newlabel{fig:ftir}{{1.5}{4}{Frustrated total internal reflection.\newline \relax }{figure.caption.7}{}}
\@writefile{toc}{\contentsline {section}{\numberline {1.4}Frequency Shift}{4}{section.1.4}}
\citation{foreman_dielectric_2016}
\citation{foreman_dielectric_2016}
\citation{thomas_effect_2006}
\citation{gorodetsky_optical_1999}
\citation{breunig_whispering_2013}
\@writefile{lof}{\contentsline {figure}{\numberline {1.6}{\ignorespaces A sweep from the LiNbO$_3$ resonator showing the mode of interest as the central dip with \SI {100}{\mega \Hz } sidebands on either side. The position of these sidebands relative to the mode generates the frequency axis.\newline  \relax }}{5}{figure.caption.8}}
\newlabel{fig:resonance}{{1.6}{5}{A sweep from the LiNbO$_3$ resonator showing the mode of interest as the central dip with \SI {100}{\mega \Hz } sidebands on either side. The position of these sidebands relative to the mode generates the frequency axis.\newline \relax }{figure.caption.8}{}}
\@writefile{toc}{\contentsline {subsection}{\numberline {1.4.1}Q-Factor}{5}{subsection.1.4.1}}
\newlabel{Qfactor}{{1.4.1}{5}{Q-Factor}{subsection.1.4.1}{}}
\newlabel{eq:Q}{{1.3}{5}{Q-Factor}{equation.1.4.3}{}}
\@writefile{lof}{\contentsline {figure}{\numberline {1.7}{\ignorespaces Figure taken from \cite  {foreman_dielectric_2016} showing how mode frequency changes with refractive index.\newline  \relax }}{6}{figure.caption.9}}
\newlabel{fig:foreman}{{1.7}{6}{Figure taken from \cite {foreman_dielectric_2016} showing how mode frequency changes with refractive index.\newline \relax }{figure.caption.9}{}}
\@writefile{toc}{\contentsline {subsection}{\numberline {1.4.2}Coupling Strength}{6}{subsection.1.4.2}}
\newlabel{eq:K}{{1.4}{6}{Coupling Strength}{equation.1.4.4}{}}
\@setckpt{Chapter_1}{
\setcounter{page}{8}
\setcounter{equation}{4}
\setcounter{enumi}{0}
\setcounter{enumii}{0}
\setcounter{enumiii}{0}
\setcounter{enumiv}{0}
\setcounter{footnote}{0}
\setcounter{mpfootnote}{0}
\setcounter{part}{0}
\setcounter{chapter}{1}
\setcounter{section}{4}
\setcounter{subsection}{2}
\setcounter{subsubsection}{0}
\setcounter{paragraph}{0}
\setcounter{subparagraph}{0}
\setcounter{figure}{7}
\setcounter{table}{0}
\setcounter{parentequation}{0}
\setcounter{NAT@ctr}{0}
\setcounter{ContinuedFloat}{0}
\setcounter{r@tfl@t}{0}
\setcounter{subfigure}{0}
\setcounter{subtable}{0}
\setcounter{@todonotes@numberoftodonotes}{0}
\setcounter{Item}{0}
\setcounter{Hfootnote}{0}
\setcounter{bookmark@seq@number}{8}
\setcounter{section@level}{2}
}
