\relax 
\providecommand\hyper@newdestlabel[2]{}
\@writefile{toc}{\contentsline {chapter}{\numberline {5}Appendix}{44}{chapter.5}}
\@writefile{lof}{\addvspace {10\p@ }}
\@writefile{lot}{\addvspace {10\p@ }}
\@setckpt{Chapter_5}{
\setcounter{page}{46}
\setcounter{equation}{0}
\setcounter{enumi}{5}
\setcounter{enumii}{0}
\setcounter{enumiii}{0}
\setcounter{enumiv}{0}
\setcounter{footnote}{0}
\setcounter{mpfootnote}{0}
\setcounter{part}{0}
\setcounter{chapter}{5}
\setcounter{section}{0}
\setcounter{subsection}{0}
\setcounter{subsubsection}{0}
\setcounter{paragraph}{0}
\setcounter{subparagraph}{0}
\setcounter{figure}{0}
\setcounter{table}{0}
\setcounter{parentequation}{0}
\setcounter{NAT@ctr}{0}
\setcounter{ContinuedFloat}{0}
\setcounter{r@tfl@t}{0}
\setcounter{subfigure}{0}
\setcounter{subtable}{0}
\setcounter{@todonotes@numberoftodonotes}{0}
\setcounter{Item}{5}
\setcounter{Hfootnote}{0}
\setcounter{bookmark@seq@number}{36}
\setcounter{section@level}{1}
}
