\relax 
\providecommand\hyper@newdestlabel[2]{}
\@writefile{toc}{\contentsline {chapter}{\numberline {4}Results}{29}{chapter.4}}
\@writefile{lof}{\addvspace {10\p@ }}
\@writefile{lot}{\addvspace {10\p@ }}
\@writefile{toc}{\contentsline {section}{\numberline {4.1}Results}{29}{section.4.1}}
\newlabel{Results}{{4.1}{29}{Results}{section.4.1}{}}
\@writefile{toc}{\contentsline {subsection}{\numberline {4.1.1}SF11}{30}{subsection.4.1.1}}
\newlabel{Results:SF11}{{4.1.1}{30}{SF11}{subsection.4.1.1}{}}
\@writefile{lof}{\contentsline {figure}{\numberline {4.1}{\ignorespaces The figures showing a SF11 substrate causing a frequency shift in the WGMR. $n = 1.7434$\relax }}{30}{figure.caption.26}}
\citation{zelmon_infrared_1997}
\citation{zelmon_infrared_1997}
\citation{phillip_kramers-kronig_1964}
\citation{phillip_kramers-kronig_1964}
\@writefile{lof}{\contentsline {figure}{\numberline {4.2}{\ignorespaces An image of the mounted SF11 substrate.\newline  \relax }}{31}{figure.caption.27}}
\newlabel{fig:SF11substrate}{{4.2}{31}{An image of the mounted SF11 substrate.\newline \relax }{figure.caption.27}{}}
\@writefile{toc}{\contentsline {subsection}{\numberline {4.1.2}Lithium Niobate}{31}{subsection.4.1.2}}
\newlabel{Results:LiNbO3}{{4.1.2}{31}{Lithium Niobate}{subsection.4.1.2}{}}
\@writefile{lof}{\contentsline {figure}{\numberline {4.3}{\ignorespaces The figures showing a LiNbO$_{3}$ substrate causing a frequency shift in the WGMR. $n_e = 2.21$, $n_o = 2.30$ \cite  {zelmon_infrared_1997}\relax }}{32}{figure.caption.28}}
\@writefile{lof}{\contentsline {figure}{\numberline {4.4}{\ignorespaces An image of the mounted LiNbO3 substrate.\newline  \relax }}{32}{figure.caption.29}}
\newlabel{fig:LiNbO3substrate}{{4.4}{32}{An image of the mounted LiNbO3 substrate.\newline \relax }{figure.caption.29}{}}
\citation{devore_refractive_1951}
\citation{devore_refractive_1951}
\@writefile{lof}{\contentsline {figure}{\numberline {4.5}{\ignorespaces The figures showing a diamond substrate causing a frequency shift in the WGMR. $n = 2.3878$ \cite  {phillip_kramers-kronig_1964}\relax }}{33}{figure.caption.30}}
\@writefile{toc}{\contentsline {subsection}{\numberline {4.1.3}Diamond}{33}{subsection.4.1.3}}
\newlabel{Results:Diamond}{{4.1.3}{33}{Diamond}{subsection.4.1.3}{}}
\@writefile{lof}{\contentsline {figure}{\numberline {4.6}{\ignorespaces An image of the mounted diamond substrate.\newline  \relax }}{34}{figure.caption.31}}
\newlabel{fig:Diamondsubstrate}{{4.6}{34}{An image of the mounted diamond substrate.\newline \relax }{figure.caption.31}{}}
\@writefile{toc}{\contentsline {subsection}{\numberline {4.1.4}Rutile}{34}{subsection.4.1.4}}
\newlabel{Results:Rutile}{{4.1.4}{34}{Rutile}{subsection.4.1.4}{}}
\@writefile{lof}{\contentsline {figure}{\numberline {4.7}{\ignorespaces The figures showing a rutile substrate causing a frequency shift in the WGMR. $n = 2.4538$ \cite  {devore_refractive_1951}\relax }}{34}{figure.caption.32}}
\citation{green_self-consistent_2008}
\citation{green_self-consistent_2008}
\citation{foreman_dielectric_2016}
\citation{foreman_dielectric_2016}
\@writefile{lof}{\contentsline {figure}{\numberline {4.8}{\ignorespaces An image of the mounted rutile substrate.\newline  \relax }}{35}{figure.caption.33}}
\newlabel{fig:Rutilesubstrate}{{4.8}{35}{An image of the mounted rutile substrate.\newline \relax }{figure.caption.33}{}}
\@writefile{toc}{\contentsline {subsection}{\numberline {4.1.5}Silicon}{35}{subsection.4.1.5}}
\newlabel{Results:Silicon}{{4.1.5}{35}{Silicon}{subsection.4.1.5}{}}
\@writefile{lof}{\contentsline {figure}{\numberline {4.9}{\ignorespaces The figures showing a silicon substrate causing a frequency shift in the WGMR. $n = 3.4850$ \cite  {green_self-consistent_2008}\relax }}{36}{figure.caption.34}}
\@writefile{lof}{\contentsline {figure}{\numberline {4.10}{\ignorespaces An image of the mounted silicon substrate.\newline  \relax }}{36}{figure.caption.35}}
\newlabel{fig:Siliconsubstrate}{{4.10}{36}{An image of the mounted silicon substrate.\newline \relax }{figure.caption.35}{}}
\citation{foreman_dielectric_2016}
\@writefile{toc}{\contentsline {section}{\numberline {4.2}Analysis}{37}{section.4.2}}
\citation{foreman_dielectric_2016}
\@writefile{lof}{\contentsline {figure}{\numberline {4.11}{\ignorespaces Reconstructing figure \ref  {fig:foreman} with the experiment results.\newline  \relax }}{38}{figure.caption.36}}
\newlabel{fig:foremanexperiment}{{4.11}{38}{Reconstructing figure \ref {fig:foreman} with the experiment results.\newline \relax }{figure.caption.36}{}}
\citation{savchenkov_enhancement_2006}
\citation{savchenkov_enhancement_2006}
\citation{savchenkov_enhancement_2006}
\citation{moretti_temperature_2005}
\citation{moretti_temperature_2005}
\citation{moretti_temperature_2005}
\citation{moretti_temperature_2005}
\@writefile{lof}{\contentsline {figure}{\numberline {4.12}{\ignorespaces Image taken from \cite  {savchenkov_enhancement_2006} to demonstrate that on large time scales we expect ambient fluctuations..\newline  \relax }}{40}{figure.caption.37}}
\newlabel{fig:savchenkov}{{4.12}{40}{Image taken from \cite {savchenkov_enhancement_2006} to demonstrate that on large time scales we expect ambient fluctuations..\newline \relax }{figure.caption.37}{}}
\newlabel{nu}{{4.6}{40}{Analysis}{equation.4.2.6}{}}
\citation{pignatiello_measurement_2007}
\citation{foreman_dielectric_2016}
\citation{foreman_dielectric_2016}
\citation{savchenkov_enhancement_2006}
\@writefile{toc}{\contentsline {section}{\numberline {4.3}Conclusion}{42}{section.4.3}}
\@setckpt{Chapter_4}{
\setcounter{page}{44}
\setcounter{equation}{16}
\setcounter{enumi}{5}
\setcounter{enumii}{0}
\setcounter{enumiii}{0}
\setcounter{enumiv}{0}
\setcounter{footnote}{0}
\setcounter{mpfootnote}{0}
\setcounter{part}{0}
\setcounter{chapter}{4}
\setcounter{section}{3}
\setcounter{subsection}{0}
\setcounter{subsubsection}{0}
\setcounter{paragraph}{0}
\setcounter{subparagraph}{0}
\setcounter{figure}{12}
\setcounter{table}{0}
\setcounter{parentequation}{0}
\setcounter{NAT@ctr}{0}
\setcounter{ContinuedFloat}{0}
\setcounter{r@tfl@t}{0}
\setcounter{subfigure}{0}
\setcounter{subtable}{0}
\setcounter{@todonotes@numberoftodonotes}{0}
\setcounter{Item}{5}
\setcounter{Hfootnote}{0}
\setcounter{bookmark@seq@number}{35}
\setcounter{section@level}{1}
}
