\relax 
\providecommand\hyper@newdestlabel[2]{}
\bibstyle{unsrt}
\providecommand\HyperFirstAtBeginDocument{\AtBeginDocument}
\HyperFirstAtBeginDocument{\ifx\hyper@anchor\@undefined
\global\let\oldcontentsline\contentsline
\gdef\contentsline#1#2#3#4{\oldcontentsline{#1}{#2}{#3}}
\global\let\oldnewlabel\newlabel
\gdef\newlabel#1#2{\newlabelxx{#1}#2}
\gdef\newlabelxx#1#2#3#4#5#6{\oldnewlabel{#1}{{#2}{#3}}}
\AtEndDocument{\ifx\hyper@anchor\@undefined
\let\contentsline\oldcontentsline
\let\newlabel\oldnewlabel
\fi}
\fi}
\global\let\hyper@last\relax 
\gdef\HyperFirstAtBeginDocument#1{#1}
\providecommand\HyField@AuxAddToFields[1]{}
\providecommand\HyField@AuxAddToCoFields[2]{}
\citation{foreman_dielectric_2016}
\@input{Chapter_1.aux}
\@input{Chapter_2.aux}
\@input{Chapter_3.aux}
\@input{Chapter_4.aux}
\@input{Chapter_5.aux}
\bibdata{biblib}
\bibcite{foreman_dielectric_2016}{{1}{}{{}}{{}}}
\bibcite{rayleigh_theory_1877}{{2}{}{{}}{{}}}
\bibcite{zhu_frustrated_1986}{{3}{}{{}}{{}}}
\bibcite{thomas_effect_2006}{{4}{}{{}}{{}}}
\bibcite{gorodetsky_optical_1999}{{5}{}{{}}{{}}}
\bibcite{breunig_whispering_2013}{{6}{}{{}}{{}}}
\bibcite{strekalov_nonlinear_2016}{{7}{}{{}}{{}}}
\bibcite{phillip_kramers-kronig_1964}{{8}{}{{}}{{}}}
\bibcite{zelmon_infrared_1997}{{9}{}{{}}{{}}}
\bibcite{devore_refractive_1951}{{10}{}{{}}{{}}}
\bibcite{green_self-consistent_2008}{{11}{}{{}}{{}}}
\bibcite{savchenkov_enhancement_2006}{{12}{}{{}}{{}}}
\bibcite{moretti_temperature_2005}{{13}{}{{}}{{}}}
\bibcite{pignatiello_measurement_2007}{{14}{}{{}}{{}}}
\providecommand\NAT@force@numbers{}\NAT@force@numbers
