391.7	391.3	390.7	389.9	388.9	387.7	386.4	385	383.5	382.1	380.7	379.4	378.2	377.2	376.4	375.8	375.4
316.8	317.9	318.7	318.3	316.1	312.4	307.8	303.5	300.5	299.3	299.7	301	302	301.9	300.3	297.9	295.8
283.8	279.5	272.7	264	254.2	244.5	235.8	228.8	224.1	222	223	226.8	232.6	239.1	244.6	248.3	250.2
236.6	232.2	225.9	218.9	212	206	201.2	197.5	194.9	193.6	193.9	196.1	200.2	205.6	211.2	215.9	219
187.6	186.9	186.3	185.9	186	186.6	187.4	187.8	187.7	187.1	186.6	186.6	187.7	189.9	192.8	195.7	197.8
157.2	159.7	163.7	168.7	174.4	179.7	184	186.5	187.3	186.9	186.1	185.6	185.7	186.5	187.9	189.4	190.6
151.9	155.7	161.7	169.2	177	183.5	187.8	189.9	190.5	190.5	190.8	191.5	193	194.9	196.8	198.2	199.2
158.7	162.5	168.5	177	185.4	191.9	195.1	196.6	197.4	198.3	199.8	201.6	204.2	207.4	210	211.1	211.8
179.1	180.3	182.8	189.8	197.3	202.6	204.1	204.3	205.1	206.2	208.4	210.1	213.4	217.9	221.3	221.3	221.4
201.4	200.8	200.8	203.7	207.3	209.9	210.6	210.2	210.6	211.6	213.7	215.7	219	223.4	227.1	226.6	227.2
223.1	221.2	219.8	217.3	216	216.2	217.6	217.9	217.6	217.1	218.2	220	222.5	226.2	230.7	231.3	233.7
244.1	240.2	235.9	230.7	227.3	228.4	231.1	231.5	231.3	230	228	226.7	227.1	229.4	234.2	239.6	245.7
259.7	255.5	251.2	245.9	242.7	243	246.3	248.2	248	246.4	241.3	237.7	233.3	234	240.2	249.3	258.1
271.4	268.1	264.8	260.6	256.8	255.8	257.3	262.2	263.9	262.9	258.2	253.3	246.7	244.3	248.6	257.1	265.4
278.8	276.1	273.3	271.5	268.6	267.1	267.4	270	271.4	271.4	269.5	265.1	260.3	254.9	253.3	254.7	257.9
276.9	275.1	273.5	271.5	270	267.9	268.3	268.4	269.7	270.2	270	266.8	262.3	255.6	250.2	246.8	245.5
267.1	265.6	264	262.5	261.6	259	258.2	259	259.9	260.1	259.6	256.7	252.2	245.5	242	239.2	236.7
253.9	253	251.8	250	247.4	245.8	245.5	244.6	244.9	244.9	245	242.3	238	232.4	231.9	232.5	231.3
239.4	239.1	238.6	236.7	233.8	231.9	229.9	228.9	228.2	228.8	229	228.8	225.1	221.9	222.2	224	222.9
232.8	231.2	229.2	226.7	224.3	221.9	219.5	218.5	217.9	217.9	217.8	218.3	218.4	218.1	216.2	213.6	210.4
232.2	230.7	227.7	221.5	215.1	210.3	207.3	205.3	204.1	204.6	207	210.3	214.8	217.6	217.1	213.8	209.1
230.7	229.7	226.1	219.2	212.1	206.2	202	199.9	199.8	200.1	202.5	208.3	215.2	218.8	217.9	214.6	210.4
226.1	226.1	225.3	226.5	230.7	235.5	238.7	239.1	239.1	238.9	236	228.9	221.6	219	217.5	215.6	213.7
239.2	241.6	247.4	256.5	264.8	269.8	272	272.3	272.3	272.5	269.4	261.7	252.2	244.3	239.3	235.6	233
NaN	272	276.2	282.2	290	296.3	299.5	300.7	300.6	299.8	296.7	291.2	284.3	277.6	266.5	254	247.4
