388.2	387.7	387	386	384.7	383.3	381.7	380	378.3	376.5	374.9	373.3	371.9	370.6	369.6	368.9	368.4
314	314.9	315.6	315	312.7	308.8	304	299.5	296.1	294.4	294.5	295.3	296	295.7	293.9	291.4	289.1
284.5	279.9	272.7	263.7	253.8	244	235.2	227.9	222.7	220.1	220.4	223.6	229	235.1	240.4	244.1	245.9
238.3	233.5	226.9	219.5	212.5	206.5	201.5	197.6	194.6	193	193	195	199.1	204.5	210.3	215.2	218.5
187.3	186.7	186.1	185.8	186	186.7	187.5	187.9	187.7	187.1	186.6	186.9	188.4	191.1	194.6	198	200.5
154.8	157.6	161.9	167.4	173.5	179.2	183.8	186.4	187.3	186.9	186.3	186.3	187.1	188.9	191.2	193.6	195.3
148.3	152.6	159.2	167.1	175.4	182.5	187.4	189.9	190.7	190.8	190.9	192.2	194.5	197.4	200.3	202.8	204.6
155.5	160.3	167.1	175.1	183.5	190.3	194.6	197.1	198.5	199.2	200	202.3	205.8	209.5	212.7	215.4	217.2
180	182.9	186.6	190.6	196	200.7	203.7	206	208	208.4	208.1	210.3	214.4	218.7	221.8	224.5	226.4
205.4	206.5	207.4	207.4	208.3	209.1	209.6	209.4	209.7	210.1	211.2	214.3	218.8	223.3	227.1	227.8	228.6
226.3	225.6	223.9	221.9	220.3	218.5	216.6	213.4	210.9	211	213.9	218.3	222.9	227.1	231.6	230.4	230
240.6	239.1	236.9	235.3	233.3	231	229.7	228.2	226.1	225.4	227.2	229.1	229.7	232.5	237.1	236.8	236.5
259.3	255.9	251.4	248.7	245.6	244.4	243.2	245	244.8	244.2	242.2	240.2	238.3	239.8	243.1	246	247.1
273.7	270.2	266.2	263.5	261.5	258.8	256.8	257.6	258.6	258.3	256	253.1	250.3	249.8	250.5	254.3	256.2
283.7	280.3	276.7	274.2	273	271.9	269.8	267	266.5	266.4	265.3	263.3	259.5	256.9	256.6	260.2	261.7
284.4	281.4	278.4	276.4	275.1	272.6	269.8	267.6	266.7	266.6	266.9	263.6	259.2	252.5	249.8	251.4	253.2
277.7	274.2	269.5	267	265.3	262.2	261	260.3	260	259.6	257.8	252.7	245.6	239	234.9	232.4	231.4
263.3	259.9	255.1	250.7	247.9	246.6	246.9	247.8	247.9	246.8	243.9	238.1	231.5	223.9	219.4	215	211.2
246.6	243.6	238.6	232.5	229.4	229.9	230.5	229.9	230.6	230.8	228.9	225.8	220.4	215.1	209.9	205.4	201
235.5	234.6	230.4	226.9	222.9	221	219.9	219.3	219	219.3	219.5	218.6	216.9	214.5	210.6	206.1	201.9
233.8	231.8	227.9	222	216.6	211.8	208.6	207.2	206.7	206.8	208.5	210.7	213.8	215.6	215.3	212.2	208.7
226.1	225.4	223.4	220.4	215.2	208.6	202.8	199.3	198.9	199.3	201.6	206.6	212.4	216.5	217.9	216.6	214.5
214.8	216.5	219	222.5	226.2	231.1	236.3	238.5	238.9	238.6	236	230.4	223.9	220.5	219.3	218.1	216.9
235.6	238.7	244.5	252.1	259.8	266.1	270.5	271.9	272.1	272.5	270.9	265.2	257.5	249.8	243.3	238.7	236
NaN	269.9	274.4	280.2	287.3	292.9	297.2	299.7	300.2	300.6	299.3	295	288.3	281	271.8	261.2	255.7
