\relax 
\citation{Strekalov}
\citation{Schunk}
\citation{Foreman}
\citation{Foreman}
\bibcite{Strekalov}{1}
\bibcite{Schunk}{2}
\bibcite{Foreman}{3}
\@writefile{lof}{\contentsline {figure}{\numberline {1}{\ignorespaces Schematic of the experiment with a SF11 substrate being brought into close proximity with the resonator.\relax }}{1}}
\providecommand*\caption@xref[2]{\@setref\relax\@undefined{#1}}
\newlabel{fig:schematic}{{1}{1}}
