\relax 
\providecommand\hyper@newdestlabel[2]{}
\@writefile{toc}{\contentsline {chapter}{\numberline {3}Whispering Gallery Mode Resonators}{15}{chapter.46}\protected@file@percent }
\@writefile{lof}{\addvspace {10\p@ }}
\@writefile{lot}{\addvspace {10\p@ }}
\newlabel{Chapter3}{{3}{15}{Whispering Gallery Mode Resonators}{chapter.46}{}}
\@writefile{toc}{\contentsline {section}{\numberline {3.1}WGMR Structure}{15}{section.47}\protected@file@percent }
\newlabel{whispering_gallery_mode_resonator_structure}{{3.1}{15}{WGMR Structure}{section.47}{}}
\@writefile{toc}{\contentsline {subsection}{\numberline {3.1.1}Geometry}{15}{subsection.48}\protected@file@percent }
\newlabel{geometry}{{3.1.1}{15}{Geometry}{subsection.48}{}}
\@writefile{toc}{\contentsline {subsection}{\numberline {3.1.2}Birefringence}{15}{subsection.51}\protected@file@percent }
\newlabel{birefringence}{{3.1.2}{15}{Birefringence}{subsection.51}{}}
\@writefile{lof}{\contentsline {figure}{\numberline {3.1}{\ignorespaces WGMR Structure}}{16}{figure.caption.49}\protected@file@percent }
\newlabel{fig:wgmr_structure}{{3.1}{16}{WGMR Structure}{figure.caption.49}{}}
\@writefile{lof}{\contentsline {figure}{\numberline {3.2}{\ignorespaces WGMR z-cut diagram}}{16}{figure.caption.50}\protected@file@percent }
\newlabel{fig:wgmr_z_cut_image}{{3.2}{16}{WGMR z-cut diagram}{figure.caption.50}{}}
\@writefile{toc}{\contentsline {section}{\numberline {3.2}Total Internal Reflection}{16}{section.52}\protected@file@percent }
\newlabel{total_internal_reflection}{{3.2}{16}{Total Internal Reflection}{section.52}{}}
\@writefile{toc}{\contentsline {subsection}{\numberline {3.2.1}Snell's Law}{17}{subsection.53}\protected@file@percent }
\newlabel{snells_law}{{3.2.1}{17}{Snell's Law}{subsection.53}{}}
\newlabel{eq:snell1}{{3.1}{17}{Snell's Law}{equation.54}{}}
\newlabel{eq:snell2}{{3.2}{17}{Snell's Law}{equation.55}{}}
\@writefile{lof}{\contentsline {figure}{\numberline {3.3}{\ignorespaces Total Internal Reflection}}{17}{figure.caption.56}\protected@file@percent }
\newlabel{fig:tir}{{3.3}{17}{Total Internal Reflection}{figure.caption.56}{}}
\@writefile{toc}{\contentsline {subsection}{\numberline {3.2.2}Frustrated Total Internal Reflection}{17}{subsection.57}\protected@file@percent }
\newlabel{frustrated_total_internal_reflection}{{3.2.2}{17}{Frustrated Total Internal Reflection}{subsection.57}{}}
\@writefile{lof}{\contentsline {figure}{\numberline {3.4}{\ignorespaces Frustrated total internal reflection}}{18}{figure.caption.58}\protected@file@percent }
\newlabel{fig:ftir}{{3.4}{18}{Frustrated total internal reflection}{figure.caption.58}{}}
\@writefile{toc}{\contentsline {section}{\numberline {3.3}Coupling}{18}{section.59}\protected@file@percent }
\newlabel{coupling}{{3.3}{18}{Coupling}{section.59}{}}
\@writefile{toc}{\contentsline {subsection}{\numberline {3.3.1}Free-Space Coupling}{18}{subsection.60}\protected@file@percent }
\newlabel{free_space_coupling}{{3.3.1}{18}{Free-Space Coupling}{subsection.60}{}}
\@writefile{toc}{\contentsline {subsection}{\numberline {3.3.2}Prism Movement}{19}{subsection.61}\protected@file@percent }
\newlabel{prism_movement}{{3.3.2}{19}{Prism Movement}{subsection.61}{}}
\@writefile{toc}{\contentsline {subsection}{\numberline {3.3.3}Coupling Angle Calculation}{19}{subsection.62}\protected@file@percent }
\newlabel{coupling_angle_calculation}{{3.3.3}{19}{Coupling Angle Calculation}{subsection.62}{}}
\newlabel{eq:angle1}{{3.3}{20}{Coupling Angle Calculation}{equation.63}{}}
\newlabel{eq:angle2}{{3.4}{20}{Coupling Angle Calculation}{equation.64}{}}
\newlabel{eq:angle3}{{3.5}{20}{Coupling Angle Calculation}{equation.65}{}}
\newlabel{eq:angle4}{{3.6}{20}{Coupling Angle Calculation}{equation.66}{}}
\@writefile{lof}{\contentsline {figure}{\numberline {3.5}{\ignorespaces Coupling Angle Diagram}}{20}{figure.caption.67}\protected@file@percent }
\newlabel{fig:coupling_angle}{{3.5}{20}{Coupling Angle Diagram}{figure.caption.67}{}}
\newlabel{fig:newtons_rings_1}{{3.6a}{21}{The reflected image shows a potential coupling spot. Indicated by the presence of a circular interference pattern with a notable dark fringe along the top and right of the pattern. This has been framed in yellow for clarity. A zoomed in crop of the frame is seen to the right with an arc drawn in blue to direct the eye to where the fringe can be seen.\relax }{figure.caption.69}{}}
\newlabel{sub@fig:newtons_rings_1}{{a}{21}{The reflected image shows a potential coupling spot. Indicated by the presence of a circular interference pattern with a notable dark fringe along the top and right of the pattern. This has been framed in yellow for clarity. A zoomed in crop of the frame is seen to the right with an arc drawn in blue to direct the eye to where the fringe can be seen.\relax }{figure.caption.69}{}}
\newlabel{fig:newtons_rings_2}{{3.6b}{21}{This is the same reflected image but with the WGMR and coupling prism no longer in contact. This causes the dark fringe previously seen to disappear. As the presence of the dark fringe is dependent on the distance between the WGMR and coupling prism, this indicates the location of the coupling spot.\relax }{figure.caption.69}{}}
\newlabel{sub@fig:newtons_rings_2}{{b}{21}{This is the same reflected image but with the WGMR and coupling prism no longer in contact. This causes the dark fringe previously seen to disappear. As the presence of the dark fringe is dependent on the distance between the WGMR and coupling prism, this indicates the location of the coupling spot.\relax }{figure.caption.69}{}}
\@writefile{lof}{\contentsline {figure}{\numberline {3.6}{\ignorespaces Newton's rings illustration}}{21}{figure.caption.69}\protected@file@percent }
\newlabel{fig:newtons_rings}{{3.6}{21}{Newton's rings illustration}{figure.caption.69}{}}
\@writefile{toc}{\contentsline {subsection}{\numberline {3.3.4}Newton's Rings}{21}{subsection.68}\protected@file@percent }
\newlabel{newtons_rings}{{3.3.4}{21}{Newton's Rings}{subsection.68}{}}
\@writefile{lof}{\contentsline {figure}{\numberline {3.7}{\ignorespaces Resonator coupling glow}}{22}{figure.caption.70}\protected@file@percent }
\newlabel{fig:coupled_resonator}{{3.7}{22}{Resonator coupling glow}{figure.caption.70}{}}
\@writefile{toc}{\contentsline {section}{\numberline {3.4}Mode Observation}{22}{section.71}\protected@file@percent }
\newlabel{mode_observation}{{3.4}{22}{Mode Observation}{section.71}{}}
\@writefile{lof}{\contentsline {figure}{\numberline {3.8}{\ignorespaces 1550nm laser control}}{22}{figure.caption.72}\protected@file@percent }
\newlabel{fig:laser_controller}{{3.8}{22}{1550nm laser control}{figure.caption.72}{}}
\@writefile{lof}{\contentsline {figure}{\numberline {3.9}{\ignorespaces Whispering Gallery Modes - Oscilloscope}}{23}{figure.caption.73}\protected@file@percent }
\newlabel{fig:wgms_oscilloscope}{{3.9}{23}{Whispering Gallery Modes - Oscilloscope}{figure.caption.73}{}}
\@writefile{toc}{\contentsline {subsection}{\numberline {3.4.1}Modes Characterisation}{23}{subsection.74}\protected@file@percent }
\newlabel{mode_characterisation}{{3.4.1}{23}{Modes Characterisation}{subsection.74}{}}
\newlabel{fig:wgmr_mode_1}{{3.10a}{24}{Depiction of a mode with $q=1$, $p=0$. This is a fundamental mode.\relax }{figure.caption.78}{}}
\newlabel{sub@fig:wgmr_mode_1}{{a}{24}{Depiction of a mode with $q=1$, $p=0$. This is a fundamental mode.\relax }{figure.caption.78}{}}
\newlabel{fig:wgmr_mode_2}{{3.10b}{24}{Depiction of a mode with $q=2$, $p=0$.\relax }{figure.caption.78}{}}
\newlabel{sub@fig:wgmr_mode_2}{{b}{24}{Depiction of a mode with $q=2$, $p=0$.\relax }{figure.caption.78}{}}
\newlabel{fig:wgmr_mode_3}{{3.10c}{24}{Depiction of a mode with $q=1$, $p=1$.\relax }{figure.caption.78}{}}
\newlabel{sub@fig:wgmr_mode_3}{{c}{24}{Depiction of a mode with $q=1$, $p=1$.\relax }{figure.caption.78}{}}
\@writefile{lof}{\contentsline {figure}{\numberline {3.10}{\ignorespaces WGMR Mode numbers}}{24}{figure.caption.78}\protected@file@percent }
\newlabel{fig:modes}{{3.10}{24}{WGMR Mode numbers}{figure.caption.78}{}}
\@writefile{toc}{\contentsline {subsubsection}{Fundamental Modes}{24}{section*.79}\protected@file@percent }
\@writefile{toc}{\contentsline {section}{\numberline {3.5}WGMR Characterisation}{24}{section.80}\protected@file@percent }
\newlabel{whispering_gallery_mode_resonator_characterisation}{{3.5}{24}{WGMR Characterisation}{section.80}{}}
\@writefile{toc}{\contentsline {subsection}{\numberline {3.5.1}Linewidth}{24}{subsection.81}\protected@file@percent }
\newlabel{linewidth}{{3.5.1}{24}{Linewidth}{subsection.81}{}}
\@writefile{toc}{\contentsline {subsection}{\numberline {3.5.2}Coupling Contrast}{24}{subsection.83}\protected@file@percent }
\newlabel{coupling_contrast}{{3.5.2}{24}{Coupling Contrast}{subsection.83}{}}
\newlabel{eq:K}{{3.7}{24}{Coupling Contrast}{equation.84}{}}
\@writefile{lof}{\contentsline {figure}{\numberline {3.11}{\ignorespaces Linewidth measurement}}{25}{figure.caption.82}\protected@file@percent }
\newlabel{fig:lorentz_fit}{{3.11}{25}{Linewidth measurement}{figure.caption.82}{}}
\@writefile{toc}{\contentsline {subsection}{\numberline {3.5.3}Quality Factor}{25}{subsection.89}\protected@file@percent }
\newlabel{quality_factor}{{3.5.3}{25}{Quality Factor}{subsection.89}{}}
\newlabel{eq:Q}{{3.8}{25}{Quality Factor}{equation.90}{}}
\newlabel{fig:contrast_linewidth}{{3.12a}{26}{The effect on coupling contrast and linewidth of changing the distance between the coupling prism and resonator.\relax }{figure.caption.88}{}}
\newlabel{sub@fig:contrast_linewidth}{{a}{26}{The effect on coupling contrast and linewidth of changing the distance between the coupling prism and resonator.\relax }{figure.caption.88}{}}
\newlabel{fig:coupling_under}{{3.12b}{26}{The mode at step $2$. Here we can see that the mode is under coupled due to the small linewidth and low coupling contrast observed at this step on figure \ref {fig:contrast_linewidth}.\relax }{figure.caption.88}{}}
\newlabel{sub@fig:coupling_under}{{b}{26}{The mode at step $2$. Here we can see that the mode is under coupled due to the small linewidth and low coupling contrast observed at this step on figure \ref {fig:contrast_linewidth}.\relax }{figure.caption.88}{}}
\newlabel{fig:coupling_critical}{{3.12c}{26}{The mode at step $6$. Here we can see that the mode is critically coupled as the coupling contrast observed in figure \ref {fig:contrast_linewidth} is maximised at this step.\relax }{figure.caption.88}{}}
\newlabel{sub@fig:coupling_critical}{{c}{26}{The mode at step $6$. Here we can see that the mode is critically coupled as the coupling contrast observed in figure \ref {fig:contrast_linewidth} is maximised at this step.\relax }{figure.caption.88}{}}
\newlabel{fig:coupling_over}{{3.12d}{26}{The mode at step $7.5$. Here we can see that the mode is over coupled due to the decreased coupling contrast when compared to critical coupling and the increased linewidth observed at this step on figure \ref {fig:contrast_linewidth}.\relax }{figure.caption.88}{}}
\newlabel{sub@fig:coupling_over}{{d}{26}{The mode at step $7.5$. Here we can see that the mode is over coupled due to the decreased coupling contrast when compared to critical coupling and the increased linewidth observed at this step on figure \ref {fig:contrast_linewidth}.\relax }{figure.caption.88}{}}
\@writefile{lof}{\contentsline {figure}{\numberline {3.12}{\ignorespaces WGMR coupling regimes}}{26}{figure.caption.88}\protected@file@percent }
\newlabel{fig:coupling_strength}{{3.12}{26}{WGMR coupling regimes}{figure.caption.88}{}}
\newlabel{eq:Q_T}{{3.9}{27}{Quality Factor}{equation.91}{}}
\@writefile{toc}{\contentsline {subsection}{\numberline {3.5.4}Free Spectral Range}{27}{subsection.92}\protected@file@percent }
\newlabel{free_spectral_range}{{3.5.4}{27}{Free Spectral Range}{subsection.92}{}}
\newlabel{eq:FSR1}{{3.10}{27}{Free Spectral Range}{equation.93}{}}
\newlabel{eq:FSR2}{{3.11}{27}{Free Spectral Range}{equation.94}{}}
\@writefile{toc}{\contentsline {section}{\numberline {3.6}WGMR Characterisation Measurement Process}{27}{section.95}\protected@file@percent }
\newlabel{whispering_gallery_mode_resonator_characterisation_measurements}{{3.6}{27}{WGMR Characterisation Measurement Process}{section.95}{}}
\@writefile{toc}{\contentsline {subsection}{\numberline {3.6.1}Coupling Contrast Measurement Process}{27}{subsection.96}\protected@file@percent }
\@writefile{toc}{\contentsline {subsection}{\numberline {3.6.2}Linewidth Measurement Process}{27}{subsection.97}\protected@file@percent }
\@writefile{toc}{\contentsline {subsection}{\numberline {3.6.3}Q-Factor Measurement Process}{28}{subsection.98}\protected@file@percent }
\@writefile{lof}{\contentsline {figure}{\numberline {3.13}{\ignorespaces Q-factor measurement}}{28}{figure.caption.99}\protected@file@percent }
\newlabel{fig:q_factor_measurement}{{3.13}{28}{Q-factor measurement}{figure.caption.99}{}}
\@writefile{toc}{\contentsline {subsection}{\numberline {3.6.4}FSR Measurement Process}{28}{subsection.100}\protected@file@percent }
\newlabel{fig:fsr1}{{3.14a}{29}{Side-bands are modulated onto the signal below the FSR frequency, giving the trace side-bands that appear equidistant from the mode.\relax }{figure.caption.101}{}}
\newlabel{sub@fig:fsr1}{{a}{29}{Side-bands are modulated onto the signal below the FSR frequency, giving the trace side-bands that appear equidistant from the mode.\relax }{figure.caption.101}{}}
\newlabel{fig:fsr2}{{3.14b}{29}{Side-bands are modulated onto the signal at the FSR frequency. The side-bands coalesce with the mode giving the mode a greater coupling contrast.\relax }{figure.caption.101}{}}
\newlabel{sub@fig:fsr2}{{b}{29}{Side-bands are modulated onto the signal at the FSR frequency. The side-bands coalesce with the mode giving the mode a greater coupling contrast.\relax }{figure.caption.101}{}}
\newlabel{fig:fsr3}{{3.14c}{29}{Side-bands are modulated onto the signal above the FSR frequency. The mode loses the increased coupling contrast and the side-bands reappear to either side.\relax }{figure.caption.101}{}}
\newlabel{sub@fig:fsr3}{{c}{29}{Side-bands are modulated onto the signal above the FSR frequency. The mode loses the increased coupling contrast and the side-bands reappear to either side.\relax }{figure.caption.101}{}}
\@writefile{lof}{\contentsline {figure}{\numberline {3.14}{\ignorespaces FSR measurement}}{29}{figure.caption.101}\protected@file@percent }
\newlabel{fig:fsr}{{3.14}{29}{FSR measurement}{figure.caption.101}{}}
\@setckpt{Chapters/Chapter3}{
\setcounter{page}{30}
\setcounter{equation}{11}
\setcounter{enumi}{3}
\setcounter{enumii}{0}
\setcounter{enumiii}{0}
\setcounter{enumiv}{0}
\setcounter{footnote}{0}
\setcounter{mpfootnote}{0}
\setcounter{part}{0}
\setcounter{chapter}{3}
\setcounter{section}{6}
\setcounter{subsection}{4}
\setcounter{subsubsection}{0}
\setcounter{paragraph}{0}
\setcounter{subparagraph}{0}
\setcounter{figure}{14}
\setcounter{table}{0}
\setcounter{LT@tables}{1}
\setcounter{LT@chunks}{1}
\setcounter{caption@flags}{0}
\setcounter{ContinuedFloat}{0}
\setcounter{tabx@nest}{0}
\setcounter{listtotal}{0}
\setcounter{listcount}{0}
\setcounter{liststart}{0}
\setcounter{liststop}{0}
\setcounter{citecount}{0}
\setcounter{citetotal}{0}
\setcounter{multicitecount}{0}
\setcounter{multicitetotal}{0}
\setcounter{instcount}{38}
\setcounter{maxnames}{3}
\setcounter{minnames}{1}
\setcounter{maxitems}{3}
\setcounter{minitems}{1}
\setcounter{citecounter}{0}
\setcounter{maxcitecounter}{0}
\setcounter{savedcitecounter}{0}
\setcounter{uniquelist}{0}
\setcounter{uniquename}{0}
\setcounter{refsection}{0}
\setcounter{refsegment}{0}
\setcounter{maxextratitle}{0}
\setcounter{maxextratitleyear}{0}
\setcounter{maxextraname}{0}
\setcounter{maxextradate}{0}
\setcounter{maxextraalpha}{0}
\setcounter{abbrvpenalty}{50}
\setcounter{highnamepenalty}{50}
\setcounter{lownamepenalty}{25}
\setcounter{maxparens}{3}
\setcounter{parenlevel}{0}
\setcounter{mincomprange}{10}
\setcounter{maxcomprange}{100000}
\setcounter{mincompwidth}{1}
\setcounter{afterword}{0}
\setcounter{savedafterword}{0}
\setcounter{annotator}{0}
\setcounter{savedannotator}{0}
\setcounter{author}{0}
\setcounter{savedauthor}{0}
\setcounter{bookauthor}{0}
\setcounter{savedbookauthor}{0}
\setcounter{commentator}{0}
\setcounter{savedcommentator}{0}
\setcounter{editor}{0}
\setcounter{savededitor}{0}
\setcounter{editora}{0}
\setcounter{savededitora}{0}
\setcounter{editorb}{0}
\setcounter{savededitorb}{0}
\setcounter{editorc}{0}
\setcounter{savededitorc}{0}
\setcounter{foreword}{0}
\setcounter{savedforeword}{0}
\setcounter{holder}{0}
\setcounter{savedholder}{0}
\setcounter{introduction}{0}
\setcounter{savedintroduction}{0}
\setcounter{namea}{0}
\setcounter{savednamea}{0}
\setcounter{nameb}{0}
\setcounter{savednameb}{0}
\setcounter{namec}{0}
\setcounter{savednamec}{0}
\setcounter{translator}{0}
\setcounter{savedtranslator}{0}
\setcounter{shortauthor}{0}
\setcounter{savedshortauthor}{0}
\setcounter{shorteditor}{0}
\setcounter{savedshorteditor}{0}
\setcounter{labelname}{0}
\setcounter{savedlabelname}{0}
\setcounter{institution}{0}
\setcounter{savedinstitution}{0}
\setcounter{lista}{0}
\setcounter{savedlista}{0}
\setcounter{listb}{0}
\setcounter{savedlistb}{0}
\setcounter{listc}{0}
\setcounter{savedlistc}{0}
\setcounter{listd}{0}
\setcounter{savedlistd}{0}
\setcounter{liste}{0}
\setcounter{savedliste}{0}
\setcounter{listf}{0}
\setcounter{savedlistf}{0}
\setcounter{location}{0}
\setcounter{savedlocation}{0}
\setcounter{organization}{0}
\setcounter{savedorganization}{0}
\setcounter{origlocation}{0}
\setcounter{savedoriglocation}{0}
\setcounter{origpublisher}{0}
\setcounter{savedorigpublisher}{0}
\setcounter{publisher}{0}
\setcounter{savedpublisher}{0}
\setcounter{language}{0}
\setcounter{savedlanguage}{0}
\setcounter{origlanguage}{0}
\setcounter{savedoriglanguage}{0}
\setcounter{pageref}{0}
\setcounter{savedpageref}{0}
\setcounter{textcitecount}{0}
\setcounter{textcitetotal}{0}
\setcounter{textcitemaxnames}{0}
\setcounter{biburlnumpenalty}{0}
\setcounter{biburlucpenalty}{0}
\setcounter{biburllcpenalty}{0}
\setcounter{smartand}{1}
\setcounter{bbx:relatedcount}{0}
\setcounter{bbx:relatedtotal}{0}
\setcounter{subfigure}{3}
\setcounter{subtable}{0}
\setcounter{r@tfl@t}{0}
\setcounter{parentequation}{0}
\setcounter{Item}{10}
\setcounter{Hfootnote}{0}
\setcounter{bookmark@seq@number}{52}
\setcounter{section@level}{2}
}
