\relax 
\providecommand\hyper@newdestlabel[2]{}
\@writefile{toc}{\contentsline {chapter}{\numberline {4}Experimental Setup}{31}{chapter.102}\protected@file@percent }
\@writefile{lof}{\addvspace {10\p@ }}
\@writefile{lot}{\addvspace {10\p@ }}
\newlabel{Chapter4}{{4}{31}{Experimental Setup}{chapter.102}{}}
\@writefile{toc}{\contentsline {section}{\numberline {4.1}Experiment Objectives}{31}{section.103}\protected@file@percent }
\newlabel{experiment_objectives}{{4.1}{31}{Experiment Objectives}{section.103}{}}
\@writefile{toc}{\contentsline {subsubsection}{\citeauthor {foreman_dielectric_2016} Theory}{31}{section*.104}\protected@file@percent }
\@writefile{toc}{\contentsline {subsubsection}{Frequency Shift Contribution Discussion}{31}{section*.105}\protected@file@percent }
\@writefile{lof}{\contentsline {figure}{\numberline {4.1}{\ignorespaces \citeauthor {foreman_dielectric_2016} (\citeyear {foreman_dielectric_2016}) Figure 3a repeated}}{32}{figure.caption.106}\protected@file@percent }
\newlabel{fig:foreman3a_repeat}{{4.1}{32}{\citeauthor {foreman_dielectric_2016} (\citeyear {foreman_dielectric_2016}) Figure 3a repeated}{figure.caption.106}{}}
\@writefile{toc}{\contentsline {subsubsection}{Our Experiment}{32}{section*.107}\protected@file@percent }
\@writefile{lot}{\contentsline {table}{\numberline {4.1}{\ignorespaces The substrates used in the experiment.\relax }}{33}{table.caption.108}\protected@file@percent }
\newlabel{tab:substrates}{{4.1}{33}{The substrates used in the experiment.\relax }{table.caption.108}{}}
\@writefile{toc}{\contentsline {subsubsection}{Red Shift Phenomena}{33}{section*.109}\protected@file@percent }
\@writefile{toc}{\contentsline {subsubsection}{Blue Shift Phenomena}{34}{section*.110}\protected@file@percent }
\@writefile{toc}{\contentsline {subsubsection}{Mode Broadening}{34}{section*.111}\protected@file@percent }
\@writefile{lof}{\contentsline {figure}{\numberline {4.2}{\ignorespaces \citeauthor {foreman_dielectric_2016} (\citeyear {foreman_dielectric_2016}) Figure 3a-mode broadening}}{35}{figure.caption.112}\protected@file@percent }
\newlabel{fig:foreman3a_mode_broadening}{{4.2}{35}{\citeauthor {foreman_dielectric_2016} (\citeyear {foreman_dielectric_2016}) Figure 3a-mode broadening}{figure.caption.112}{}}
\@writefile{toc}{\contentsline {section}{\numberline {4.2}Setup}{35}{section.113}\protected@file@percent }
\newlabel{set_up}{{4.2}{35}{Setup}{section.113}{}}
\newlabel{fig:set-up_far}{{4.3a}{36}{Photograph of the experimental setup in an overview.\relax }{figure.caption.114}{}}
\newlabel{sub@fig:set-up_far}{{a}{36}{Photograph of the experimental setup in an overview.\relax }{figure.caption.114}{}}
\newlabel{fig:set-up_close}{{4.3b}{36}{Experimental Setup-Close}{figure.caption.114}{}}
\newlabel{sub@fig:set-up_close}{{b}{36}{Experimental Setup-Close}{figure.caption.114}{}}
\@writefile{lof}{\contentsline {figure}{\numberline {4.3}{\ignorespaces Photograph of Experimental Setup}}{36}{figure.caption.114}\protected@file@percent }
\@writefile{toc}{\contentsline {section}{\numberline {4.3}Automation}{36}{section.115}\protected@file@percent }
\newlabel{automation}{{4.3}{36}{Automation}{section.115}{}}
\@writefile{toc}{\contentsline {subsection}{\numberline {4.3.1}Computer Communication Discussion}{36}{subsection.116}\protected@file@percent }
\newlabel{computer_communication_discussion}{{4.3.1}{36}{Computer Communication Discussion}{subsection.116}{}}
\@writefile{toc}{\contentsline {subsubsection}{Breakout Boxes}{37}{section*.117}\protected@file@percent }
\@writefile{lof}{\contentsline {figure}{\numberline {4.4}{\ignorespaces Breakout Box}}{37}{figure.caption.118}\protected@file@percent }
\newlabel{fig:breakout_box}{{4.4}{37}{Breakout Box}{figure.caption.118}{}}
\@writefile{toc}{\contentsline {subsubsection}{Network Access}{37}{section*.119}\protected@file@percent }
\@writefile{toc}{\contentsline {subsection}{\numberline {4.3.2}Python}{38}{subsection.120}\protected@file@percent }
\newlabel{python}{{4.3.2}{38}{Python}{subsection.120}{}}
\@writefile{toc}{\contentsline {subsubsection}{Frequency Axis Calibration}{38}{section*.122}\protected@file@percent }
\newlabel{frequency_axis_calibration}{{4.3.2}{38}{Frequency Axis Calibration}{section*.122}{}}
\newlabel{eq:ScaleFactor}{{4.1}{39}{Frequency Axis Calibration}{equation.129}{}}
\newlabel{eq:ScaleFactord}{{4.2}{39}{Frequency Axis Calibration}{equation.130}{}}
\@writefile{toc}{\contentsline {subsubsection}{Program Limitations}{39}{section*.131}\protected@file@percent }
\newlabel{program_limitations}{{4.3.2}{39}{Program Limitations}{section*.131}{}}
\@writefile{toc}{\contentsline {subsection}{\numberline {4.3.3}MATLAB}{40}{subsection.133}\protected@file@percent }
\newlabel{MATLAB}{{4.3.3}{40}{MATLAB}{subsection.133}{}}
\@writefile{toc}{\contentsline {section}{\numberline {4.4}Nanocube Discussion}{40}{section.134}\protected@file@percent }
\newlabel{nanocube_discussion}{{4.4}{40}{Nanocube Discussion}{section.134}{}}
\@writefile{toc}{\contentsline {subsection}{\numberline {4.4.1}Nanocube Calibration}{41}{subsection.136}\protected@file@percent }
\newlabel{nanocube_calibration}{{4.4.1}{41}{Nanocube Calibration}{subsection.136}{}}
\@writefile{toc}{\contentsline {section}{\numberline {4.5}Attocube Discussion}{41}{section.138}\protected@file@percent }
\newlabel{attocube_discussion}{{4.5}{41}{Attocube Discussion}{section.138}{}}
\@writefile{toc}{\contentsline {subsubsection}{Attocube Movement Mechanisms}{42}{section*.141}\protected@file@percent }
\@writefile{toc}{\contentsline {subsubsection}{Attocube Audible Feedback Mechanism}{43}{section*.145}\protected@file@percent }
\newlabel{attocube_feedback}{{4.5}{43}{Attocube Audible Feedback Mechanism}{section*.145}{}}
\@writefile{toc}{\contentsline {section}{\numberline {4.6}Attocube-Nanocube Scale Calibration}{43}{section.146}\protected@file@percent }
\newlabel{attocube_nanocube_scale_calibration}{{4.6}{43}{Attocube-Nanocube Scale Calibration}{section.146}{}}
\@writefile{toc}{\contentsline {section}{\numberline {4.7}Frequency Shift Direction}{43}{section.147}\protected@file@percent }
\newlabel{frequency_shift_direction}{{4.7}{43}{Frequency Shift Direction}{section.147}{}}
\newlabel{eq:c}{{4.3}{43}{Frequency Shift Direction}{equation.148}{}}
\@writefile{toc}{\contentsline {section}{\numberline {4.8}Substrate Mounting Orientation}{44}{section.149}\protected@file@percent }
\newlabel{substrate_mounting_orientation}{{4.8}{44}{Substrate Mounting Orientation}{section.149}{}}
\newlabel{eq:delx}{{4.6}{44}{Substrate Mounting Orientation}{equation.153}{}}
\@writefile{toc}{\contentsline {section}{\numberline {4.9}Environment Control}{45}{section.155}\protected@file@percent }
\newlabel{environment_control}{{4.9}{45}{Environment Control}{section.155}{}}
\newlabel{RF1}{46}
\@writefile{lof}{\contentsline {figure}{\numberline {4.5}{\ignorespaces Python script screenshot}}{46}{figure.caption.121}\protected@file@percent }
\newlabel{fig:python_screenshot}{{4.5}{46}{Python script screenshot}{figure.caption.121}{}}
\newlabel{fig:race_condition1}{{4.6a}{47}{The expected results for the program incrementing a voltage output. These results were only obtained after implementing a \SI {500}{\milli \second } sleep after each increment in order to overcome the race condition.\relax }{figure.caption.132}{}}
\newlabel{sub@fig:race_condition1}{{a}{47}{The expected results for the program incrementing a voltage output. These results were only obtained after implementing a \SI {500}{\milli \second } sleep after each increment in order to overcome the race condition.\relax }{figure.caption.132}{}}
\newlabel{fig:race_condition2}{{4.6b}{47}{The results of the race condition test. The program has not been able to increment the output voltage and instead can only increase the voltage by a small amount when it is most of the way through a sweep. The voltage step seen in the figure corresponds to a steady output of \SI {5}{\volt } in the absence of the race condition.\relax }{figure.caption.132}{}}
\newlabel{sub@fig:race_condition2}{{b}{47}{The results of the race condition test. The program has not been able to increment the output voltage and instead can only increase the voltage by a small amount when it is most of the way through a sweep. The voltage step seen in the figure corresponds to a steady output of \SI {5}{\volt } in the absence of the race condition.\relax }{figure.caption.132}{}}
\@writefile{lof}{\contentsline {figure}{\numberline {4.6}{\ignorespaces GUI race condition test}}{47}{figure.caption.132}\protected@file@percent }
\newlabel{fig:race_condition}{{4.6}{47}{GUI race condition test}{figure.caption.132}{}}
\@writefile{lof}{\contentsline {figure}{\numberline {4.7}{\ignorespaces Nanocube Controller}}{47}{figure.caption.135}\protected@file@percent }
\newlabel{fig:nanocube_controller}{{4.7}{47}{Nanocube Controller}{figure.caption.135}{}}
\@writefile{lof}{\contentsline {figure}{\numberline {4.8}{\ignorespaces Nanocube Calibration}}{48}{figure.caption.137}\protected@file@percent }
\newlabel{fig:michelson}{{4.8}{48}{Nanocube Calibration}{figure.caption.137}{}}
\@writefile{lof}{\contentsline {figure}{\numberline {4.9}{\ignorespaces Attocube picture}}{48}{figure.caption.139}\protected@file@percent }
\newlabel{fig:attocube}{{4.9}{48}{Attocube picture}{figure.caption.139}{}}
\newlabel{fig:anc}{{4.10a}{49}{Photograph of the attocube controller with individual axis modules plugged into the front.\relax }{figure.caption.140}{}}
\newlabel{sub@fig:anc}{{a}{49}{Photograph of the attocube controller with individual axis modules plugged into the front.\relax }{figure.caption.140}{}}
\newlabel{fig:anc_display}{{4.10b}{49}{Close up of the display of the ANC300 attocube controller. The values and status for each axis are clearly visible.\relax }{figure.caption.140}{}}
\newlabel{sub@fig:anc_display}{{b}{49}{Close up of the display of the ANC300 attocube controller. The values and status for each axis are clearly visible.\relax }{figure.caption.140}{}}
\@writefile{lof}{\contentsline {figure}{\numberline {4.10}{\ignorespaces Photograph of the attocube controller used}}{49}{figure.caption.140}\protected@file@percent }
\newlabel{fig:substrate_orientation_1}{{4.11a}{49}{Substrate orientation 2}{figure.caption.150}{}}
\newlabel{sub@fig:substrate_orientation_1}{{a}{49}{Substrate orientation 2}{figure.caption.150}{}}
\newlabel{fig:substrate_orientation_2}{{4.11b}{49}{Substrate orientation 1}{figure.caption.150}{}}
\newlabel{sub@fig:substrate_orientation_2}{{b}{49}{Substrate orientation 1}{figure.caption.150}{}}
\@writefile{lof}{\contentsline {figure}{\numberline {4.11}{\ignorespaces Substrate Orientation}}{49}{figure.caption.150}\protected@file@percent }
\newlabel{fig:substrate_orientation}{{4.11}{49}{Substrate Orientation}{figure.caption.150}{}}
\@writefile{lof}{\contentsline {figure}{\numberline {4.12}{\ignorespaces Effect of substrate mounting angle on displacement}}{50}{figure.caption.154}\protected@file@percent }
\newlabel{fig:displacement_angle}{{4.12}{50}{Effect of substrate mounting angle on displacement}{figure.caption.154}{}}
\@writefile{lof}{\contentsline {figure}{\numberline {4.13}{\ignorespaces Environmental effect on frequency}}{50}{figure.caption.156}\protected@file@percent }
\newlabel{fig:no_box_drift}{{4.13}{50}{Environmental effect on frequency}{figure.caption.156}{}}
\@writefile{lof}{\contentsline {figure}{\numberline {4.14}{\ignorespaces Environmental controller}}{51}{figure.caption.157}\protected@file@percent }
\newlabel{fig:box}{{4.14}{51}{Environmental controller}{figure.caption.157}{}}
\@writefile{lof}{\contentsline {figure}{\numberline {4.15}{\ignorespaces Temperature stabiliser}}{51}{figure.caption.158}\protected@file@percent }
\newlabel{fig:temperature_stabiliser}{{4.15}{51}{Temperature stabiliser}{figure.caption.158}{}}
\@setckpt{Chapters/Chapter4}{
\setcounter{page}{52}
\setcounter{equation}{6}
\setcounter{enumi}{3}
\setcounter{enumii}{0}
\setcounter{enumiii}{0}
\setcounter{enumiv}{0}
\setcounter{footnote}{0}
\setcounter{mpfootnote}{0}
\setcounter{part}{0}
\setcounter{chapter}{4}
\setcounter{section}{9}
\setcounter{subsection}{0}
\setcounter{subsubsection}{0}
\setcounter{paragraph}{0}
\setcounter{subparagraph}{0}
\setcounter{figure}{15}
\setcounter{table}{1}
\setcounter{LT@tables}{1}
\setcounter{LT@chunks}{1}
\setcounter{caption@flags}{0}
\setcounter{ContinuedFloat}{0}
\setcounter{tabx@nest}{0}
\setcounter{listtotal}{0}
\setcounter{listcount}{0}
\setcounter{liststart}{0}
\setcounter{liststop}{0}
\setcounter{citecount}{0}
\setcounter{citetotal}{0}
\setcounter{multicitecount}{0}
\setcounter{multicitetotal}{0}
\setcounter{instcount}{80}
\setcounter{maxnames}{3}
\setcounter{minnames}{1}
\setcounter{maxitems}{3}
\setcounter{minitems}{1}
\setcounter{citecounter}{0}
\setcounter{maxcitecounter}{0}
\setcounter{savedcitecounter}{0}
\setcounter{uniquelist}{0}
\setcounter{uniquename}{0}
\setcounter{refsection}{0}
\setcounter{refsegment}{0}
\setcounter{maxextratitle}{0}
\setcounter{maxextratitleyear}{0}
\setcounter{maxextraname}{0}
\setcounter{maxextradate}{0}
\setcounter{maxextraalpha}{0}
\setcounter{abbrvpenalty}{50}
\setcounter{highnamepenalty}{50}
\setcounter{lownamepenalty}{25}
\setcounter{maxparens}{3}
\setcounter{parenlevel}{0}
\setcounter{mincomprange}{10}
\setcounter{maxcomprange}{100000}
\setcounter{mincompwidth}{1}
\setcounter{afterword}{0}
\setcounter{savedafterword}{0}
\setcounter{annotator}{0}
\setcounter{savedannotator}{0}
\setcounter{author}{0}
\setcounter{savedauthor}{0}
\setcounter{bookauthor}{0}
\setcounter{savedbookauthor}{0}
\setcounter{commentator}{0}
\setcounter{savedcommentator}{0}
\setcounter{editor}{0}
\setcounter{savededitor}{0}
\setcounter{editora}{0}
\setcounter{savededitora}{0}
\setcounter{editorb}{0}
\setcounter{savededitorb}{0}
\setcounter{editorc}{0}
\setcounter{savededitorc}{0}
\setcounter{foreword}{0}
\setcounter{savedforeword}{0}
\setcounter{holder}{0}
\setcounter{savedholder}{0}
\setcounter{introduction}{0}
\setcounter{savedintroduction}{0}
\setcounter{namea}{0}
\setcounter{savednamea}{0}
\setcounter{nameb}{0}
\setcounter{savednameb}{0}
\setcounter{namec}{0}
\setcounter{savednamec}{0}
\setcounter{translator}{0}
\setcounter{savedtranslator}{0}
\setcounter{shortauthor}{0}
\setcounter{savedshortauthor}{0}
\setcounter{shorteditor}{0}
\setcounter{savedshorteditor}{0}
\setcounter{labelname}{0}
\setcounter{savedlabelname}{0}
\setcounter{institution}{0}
\setcounter{savedinstitution}{0}
\setcounter{lista}{0}
\setcounter{savedlista}{0}
\setcounter{listb}{0}
\setcounter{savedlistb}{0}
\setcounter{listc}{0}
\setcounter{savedlistc}{0}
\setcounter{listd}{0}
\setcounter{savedlistd}{0}
\setcounter{liste}{0}
\setcounter{savedliste}{0}
\setcounter{listf}{0}
\setcounter{savedlistf}{0}
\setcounter{location}{0}
\setcounter{savedlocation}{0}
\setcounter{organization}{0}
\setcounter{savedorganization}{0}
\setcounter{origlocation}{0}
\setcounter{savedoriglocation}{0}
\setcounter{origpublisher}{0}
\setcounter{savedorigpublisher}{0}
\setcounter{publisher}{0}
\setcounter{savedpublisher}{0}
\setcounter{language}{0}
\setcounter{savedlanguage}{0}
\setcounter{origlanguage}{0}
\setcounter{savedoriglanguage}{0}
\setcounter{pageref}{0}
\setcounter{savedpageref}{0}
\setcounter{textcitecount}{0}
\setcounter{textcitetotal}{0}
\setcounter{textcitemaxnames}{0}
\setcounter{biburlnumpenalty}{0}
\setcounter{biburlucpenalty}{0}
\setcounter{biburllcpenalty}{0}
\setcounter{smartand}{1}
\setcounter{bbx:relatedcount}{0}
\setcounter{bbx:relatedtotal}{0}
\setcounter{subfigure}{0}
\setcounter{subtable}{0}
\setcounter{r@tfl@t}{1}
\setcounter{parentequation}{0}
\setcounter{Item}{19}
\setcounter{Hfootnote}{0}
\setcounter{bookmark@seq@number}{78}
\setcounter{section@level}{1}
}
