\relax 
\providecommand\hyper@newdestlabel[2]{}
\@writefile{toc}{\contentsline {chapter}{\numberline {1}Introduction}{1}{chapter.9}\protected@file@percent }
\@writefile{lof}{\addvspace {10\p@ }}
\@writefile{lot}{\addvspace {10\p@ }}
\newlabel{Chapter1}{{1}{1}{Introduction}{chapter.9}{}}
\@writefile{toc}{\contentsline {section}{\numberline {1.1}Whispering Gallery History}{1}{section.10}\protected@file@percent }
\newlabel{whispering_gallery_history}{{1.1}{1}{Whispering Gallery History}{section.10}{}}
\@writefile{lof}{\contentsline {figure}{\numberline {1.1}{\ignorespaces Saint Paul's Cathedral}}{1}{figure.caption.11}\protected@file@percent }
\providecommand*\caption@xref[2]{\@setref\relax\@undefined{#1}}
\newlabel{fig:stpauls}{{1.1}{1}{Saint Paul's Cathedral}{figure.caption.11}{}}
\@writefile{toc}{\contentsline {section}{\numberline {1.2}Whispering Gallery Phenomena}{2}{section.12}\protected@file@percent }
\newlabel{whispering_gallery_phenomena}{{1.2}{2}{Whispering Gallery Phenomena}{section.12}{}}
\@writefile{toc}{\contentsline {section}{\numberline {1.3}Whispering Gallery Resonances}{2}{section.14}\protected@file@percent }
\newlabel{whispering_gallery_resonances}{{1.3}{2}{Whispering Gallery Resonances}{section.14}{}}
\@writefile{lof}{\contentsline {figure}{\numberline {1.2}{\ignorespaces Glass ball whispering gallery}}{3}{figure.caption.13}\protected@file@percent }
\newlabel{fig:glass_wgmr}{{1.2}{3}{Glass ball whispering gallery}{figure.caption.13}{}}
\@writefile{lof}{\contentsline {figure}{\numberline {1.3}{\ignorespaces WGMR Resonances}}{3}{figure.caption.15}\protected@file@percent }
\newlabel{fig:resonance}{{1.3}{3}{WGMR Resonances}{figure.caption.15}{}}
\@writefile{toc}{\contentsline {section}{\numberline {1.4}Experiment Motivations}{4}{section.16}\protected@file@percent }
\newlabel{experiment_motivations}{{1.4}{4}{Experiment Motivations}{section.16}{}}
\@writefile{lof}{\contentsline {figure}{\numberline {1.4}{\ignorespaces \citeauthor {foreman_dielectric_2016} (\citeyear {foreman_dielectric_2016}) Figure 3a}}{4}{figure.caption.17}\protected@file@percent }
\newlabel{fig:foreman3a}{{1.4}{4}{\citeauthor {foreman_dielectric_2016} (\citeyear {foreman_dielectric_2016}) Figure 3a}{figure.caption.17}{}}
\@writefile{toc}{\contentsline {section}{\numberline {1.5}Thesis Content}{5}{section.18}\protected@file@percent }
\newlabel{thesis_content}{{1.5}{5}{Thesis Content}{section.18}{}}
\@writefile{toc}{\contentsline {section}{\numberline {1.6}Outcomes During This MSc}{6}{section.19}\protected@file@percent }
\newlabel{outcomes_during_this_thesis}{{1.6}{6}{Outcomes During This MSc}{section.19}{}}
\@setckpt{Chapters/Chapter1}{
\setcounter{page}{7}
\setcounter{equation}{0}
\setcounter{enumi}{0}
\setcounter{enumii}{0}
\setcounter{enumiii}{0}
\setcounter{enumiv}{0}
\setcounter{footnote}{0}
\setcounter{mpfootnote}{0}
\setcounter{part}{0}
\setcounter{chapter}{1}
\setcounter{section}{6}
\setcounter{subsection}{0}
\setcounter{subsubsection}{0}
\setcounter{paragraph}{0}
\setcounter{subparagraph}{0}
\setcounter{figure}{4}
\setcounter{table}{0}
\setcounter{LT@tables}{1}
\setcounter{LT@chunks}{1}
\setcounter{caption@flags}{0}
\setcounter{ContinuedFloat}{0}
\setcounter{tabx@nest}{0}
\setcounter{listtotal}{0}
\setcounter{listcount}{0}
\setcounter{liststart}{0}
\setcounter{liststop}{0}
\setcounter{citecount}{0}
\setcounter{citetotal}{0}
\setcounter{multicitecount}{0}
\setcounter{multicitetotal}{0}
\setcounter{instcount}{28}
\setcounter{maxnames}{3}
\setcounter{minnames}{1}
\setcounter{maxitems}{3}
\setcounter{minitems}{1}
\setcounter{citecounter}{0}
\setcounter{maxcitecounter}{0}
\setcounter{savedcitecounter}{0}
\setcounter{uniquelist}{0}
\setcounter{uniquename}{0}
\setcounter{refsection}{0}
\setcounter{refsegment}{0}
\setcounter{maxextratitle}{0}
\setcounter{maxextratitleyear}{0}
\setcounter{maxextraname}{0}
\setcounter{maxextradate}{0}
\setcounter{maxextraalpha}{0}
\setcounter{abbrvpenalty}{50}
\setcounter{highnamepenalty}{50}
\setcounter{lownamepenalty}{25}
\setcounter{maxparens}{3}
\setcounter{parenlevel}{0}
\setcounter{mincomprange}{10}
\setcounter{maxcomprange}{100000}
\setcounter{mincompwidth}{1}
\setcounter{afterword}{0}
\setcounter{savedafterword}{0}
\setcounter{annotator}{0}
\setcounter{savedannotator}{0}
\setcounter{author}{0}
\setcounter{savedauthor}{0}
\setcounter{bookauthor}{0}
\setcounter{savedbookauthor}{0}
\setcounter{commentator}{0}
\setcounter{savedcommentator}{0}
\setcounter{editor}{0}
\setcounter{savededitor}{0}
\setcounter{editora}{0}
\setcounter{savededitora}{0}
\setcounter{editorb}{0}
\setcounter{savededitorb}{0}
\setcounter{editorc}{0}
\setcounter{savededitorc}{0}
\setcounter{foreword}{0}
\setcounter{savedforeword}{0}
\setcounter{holder}{0}
\setcounter{savedholder}{0}
\setcounter{introduction}{0}
\setcounter{savedintroduction}{0}
\setcounter{namea}{0}
\setcounter{savednamea}{0}
\setcounter{nameb}{0}
\setcounter{savednameb}{0}
\setcounter{namec}{0}
\setcounter{savednamec}{0}
\setcounter{translator}{0}
\setcounter{savedtranslator}{0}
\setcounter{shortauthor}{0}
\setcounter{savedshortauthor}{0}
\setcounter{shorteditor}{0}
\setcounter{savedshorteditor}{0}
\setcounter{labelname}{0}
\setcounter{savedlabelname}{0}
\setcounter{institution}{0}
\setcounter{savedinstitution}{0}
\setcounter{lista}{0}
\setcounter{savedlista}{0}
\setcounter{listb}{0}
\setcounter{savedlistb}{0}
\setcounter{listc}{0}
\setcounter{savedlistc}{0}
\setcounter{listd}{0}
\setcounter{savedlistd}{0}
\setcounter{liste}{0}
\setcounter{savedliste}{0}
\setcounter{listf}{0}
\setcounter{savedlistf}{0}
\setcounter{location}{0}
\setcounter{savedlocation}{0}
\setcounter{organization}{0}
\setcounter{savedorganization}{0}
\setcounter{origlocation}{0}
\setcounter{savedoriglocation}{0}
\setcounter{origpublisher}{0}
\setcounter{savedorigpublisher}{0}
\setcounter{publisher}{0}
\setcounter{savedpublisher}{0}
\setcounter{language}{0}
\setcounter{savedlanguage}{0}
\setcounter{origlanguage}{0}
\setcounter{savedoriglanguage}{0}
\setcounter{pageref}{0}
\setcounter{savedpageref}{0}
\setcounter{textcitecount}{0}
\setcounter{textcitetotal}{0}
\setcounter{textcitemaxnames}{0}
\setcounter{biburlnumpenalty}{0}
\setcounter{biburlucpenalty}{0}
\setcounter{biburllcpenalty}{0}
\setcounter{smartand}{1}
\setcounter{bbx:relatedcount}{0}
\setcounter{bbx:relatedtotal}{0}
\setcounter{subfigure}{0}
\setcounter{subtable}{0}
\setcounter{r@tfl@t}{0}
\setcounter{parentequation}{0}
\setcounter{Item}{0}
\setcounter{Hfootnote}{0}
\setcounter{bookmark@seq@number}{12}
\setcounter{section@level}{1}
}
