\relax 
\providecommand\hyper@newdestlabel[2]{}
\@writefile{toc}{\contentsline {chapter}{\numberline {6}Experimental Results}{59}{chapter.168}\protected@file@percent }
\@writefile{lof}{\addvspace {10\p@ }}
\@writefile{lot}{\addvspace {10\p@ }}
\newlabel{Chapter6}{{6}{59}{Experimental Results}{chapter.168}{}}
\@writefile{toc}{\contentsline {section}{\numberline {6.1}Germanium}{59}{section.169}\protected@file@percent }
\newlabel{results:germanium}{{6.1}{59}{Germanium}{section.169}{}}
\@writefile{toc}{\contentsline {subsection}{\numberline {6.1.1}TE Mode Sweep}{59}{subsection.170}\protected@file@percent }
\newlabel{germanium_te}{{6.1.1}{59}{TE Mode Sweep}{subsection.170}{}}
\@writefile{toc}{\contentsline {subsection}{\numberline {6.1.2}TM Mode Sweep}{59}{subsection.174}\protected@file@percent }
\newlabel{germanium_tm}{{6.1.2}{59}{TM Mode Sweep}{subsection.174}{}}
\@writefile{lof}{\contentsline {figure}{\numberline {6.1}{\ignorespaces Germanium substrate raw results (TE)}}{61}{figure.caption.171}\protected@file@percent }
\newlabel{fig:ge_results_f}{{6.1}{61}{Germanium substrate raw results (TE)}{figure.caption.171}{}}
\@writefile{lof}{\contentsline {figure}{\numberline {6.2}{\ignorespaces Germanium substrate shift results (TE)}}{62}{figure.caption.172}\protected@file@percent }
\newlabel{fig:ge_shift_f}{{6.2}{62}{Germanium substrate shift results (TE)}{figure.caption.172}{}}
\@writefile{lof}{\contentsline {figure}{\numberline {6.3}{\ignorespaces Germanium substrate frequency detuning (TE)}}{62}{figure.caption.173}\protected@file@percent }
\newlabel{fig:ge_pcolor_f}{{6.3}{62}{Germanium substrate frequency detuning (TE)}{figure.caption.173}{}}
\@writefile{lof}{\contentsline {figure}{\numberline {6.4}{\ignorespaces Germanium substrate raw results (TM)}}{63}{figure.caption.175}\protected@file@percent }
\newlabel{fig:ge_results_f_tm}{{6.4}{63}{Germanium substrate raw results (TM)}{figure.caption.175}{}}
\@writefile{lof}{\contentsline {figure}{\numberline {6.5}{\ignorespaces Germanium substrate shift results (TM)}}{64}{figure.caption.176}\protected@file@percent }
\newlabel{fig:ge_shift_f_tm}{{6.5}{64}{Germanium substrate shift results (TM)}{figure.caption.176}{}}
\@writefile{lof}{\contentsline {figure}{\numberline {6.6}{\ignorespaces Germanium substrate frequency detuning (TM)}}{64}{figure.caption.177}\protected@file@percent }
\newlabel{fig:ge_pcolor_f_tm}{{6.6}{64}{Germanium substrate frequency detuning (TM)}{figure.caption.177}{}}
\@writefile{toc}{\contentsline {section}{\numberline {6.2}Silicon}{65}{section.178}\protected@file@percent }
\newlabel{results:silicon}{{6.2}{65}{Silicon}{section.178}{}}
\@writefile{toc}{\contentsline {subsection}{\numberline {6.2.1}TE Mode Sweep}{65}{subsection.179}\protected@file@percent }
\newlabel{silicon_te}{{6.2.1}{65}{TE Mode Sweep}{subsection.179}{}}
\@writefile{toc}{\contentsline {subsection}{\numberline {6.2.2}TM Mode Sweep}{65}{subsection.183}\protected@file@percent }
\newlabel{silicon_tm}{{6.2.2}{65}{TM Mode Sweep}{subsection.183}{}}
\@writefile{lof}{\contentsline {figure}{\numberline {6.7}{\ignorespaces Silicon substrate raw results (TE)}}{67}{figure.caption.180}\protected@file@percent }
\newlabel{fig:si_results_f}{{6.7}{67}{Silicon substrate raw results (TE)}{figure.caption.180}{}}
\@writefile{lof}{\contentsline {figure}{\numberline {6.8}{\ignorespaces Silicon substrate shift results (TE)}}{68}{figure.caption.181}\protected@file@percent }
\newlabel{fig:si_shift_f}{{6.8}{68}{Silicon substrate shift results (TE)}{figure.caption.181}{}}
\@writefile{lof}{\contentsline {figure}{\numberline {6.9}{\ignorespaces Silicon substrate frequency detuning (TE)}}{68}{figure.caption.182}\protected@file@percent }
\newlabel{fig:si_pcolor_f}{{6.9}{68}{Silicon substrate frequency detuning (TE)}{figure.caption.182}{}}
\@writefile{lof}{\contentsline {figure}{\numberline {6.10}{\ignorespaces Silicon substrate raw results (TM)}}{69}{figure.caption.184}\protected@file@percent }
\newlabel{fig:si_results_f_tm}{{6.10}{69}{Silicon substrate raw results (TM)}{figure.caption.184}{}}
\@writefile{lof}{\contentsline {figure}{\numberline {6.11}{\ignorespaces Silicon substrate shift results (TM)}}{70}{figure.caption.185}\protected@file@percent }
\newlabel{fig:si_shift_f_tm}{{6.11}{70}{Silicon substrate shift results (TM)}{figure.caption.185}{}}
\@writefile{lof}{\contentsline {figure}{\numberline {6.12}{\ignorespaces Silicon substrate frequency detuning (TM)}}{70}{figure.caption.186}\protected@file@percent }
\newlabel{fig:si_pcolor_f_tm}{{6.12}{70}{Silicon substrate frequency detuning (TM)}{figure.caption.186}{}}
\@writefile{toc}{\contentsline {section}{\numberline {6.3}Zinc Selenide}{71}{section.187}\protected@file@percent }
\newlabel{results:zinc_selenide}{{6.3}{71}{Zinc Selenide}{section.187}{}}
\@writefile{toc}{\contentsline {subsection}{\numberline {6.3.1}TE Mode Sweep}{71}{subsection.188}\protected@file@percent }
\newlabel{zinc_selenide_te}{{6.3.1}{71}{TE Mode Sweep}{subsection.188}{}}
\@writefile{toc}{\contentsline {subsection}{\numberline {6.3.2}TM Mode Sweep}{71}{subsection.192}\protected@file@percent }
\newlabel{zinc_selenide_tm}{{6.3.2}{71}{TM Mode Sweep}{subsection.192}{}}
\@writefile{lof}{\contentsline {figure}{\numberline {6.13}{\ignorespaces Zinc selenide substrate raw results (TE)}}{73}{figure.caption.189}\protected@file@percent }
\newlabel{fig:znse_results_f}{{6.13}{73}{Zinc selenide substrate raw results (TE)}{figure.caption.189}{}}
\@writefile{lof}{\contentsline {figure}{\numberline {6.14}{\ignorespaces Zinc selenide substrate shift results (TE)}}{74}{figure.caption.190}\protected@file@percent }
\newlabel{fig:znse_shift_f}{{6.14}{74}{Zinc selenide substrate shift results (TE)}{figure.caption.190}{}}
\@writefile{lof}{\contentsline {figure}{\numberline {6.15}{\ignorespaces Zinc selenide substrate frequency detuning (TE)}}{74}{figure.caption.191}\protected@file@percent }
\newlabel{fig:znse_pcolor_f}{{6.15}{74}{Zinc selenide substrate frequency detuning (TE)}{figure.caption.191}{}}
\@writefile{lof}{\contentsline {figure}{\numberline {6.16}{\ignorespaces Zinc selenide substrate raw results (TM)}}{75}{figure.caption.193}\protected@file@percent }
\newlabel{fig:znse_results_f_tm}{{6.16}{75}{Zinc selenide substrate raw results (TM)}{figure.caption.193}{}}
\@writefile{lof}{\contentsline {figure}{\numberline {6.17}{\ignorespaces Zinc selenide substrate shift results (TM)}}{76}{figure.caption.194}\protected@file@percent }
\newlabel{fig:znse_shift_f_tm}{{6.17}{76}{Zinc selenide substrate shift results (TM)}{figure.caption.194}{}}
\@writefile{lof}{\contentsline {figure}{\numberline {6.18}{\ignorespaces Zinc selenide substrate frequency detuning (TM)}}{76}{figure.caption.195}\protected@file@percent }
\newlabel{fig:znse_pcolor_f_tm}{{6.18}{76}{Zinc selenide substrate frequency detuning (TM)}{figure.caption.195}{}}
\@writefile{toc}{\contentsline {section}{\numberline {6.4}Zinc Sulfide}{77}{section.196}\protected@file@percent }
\newlabel{results:zinc_sulfide}{{6.4}{77}{Zinc Sulfide}{section.196}{}}
\@writefile{toc}{\contentsline {subsection}{\numberline {6.4.1}TE Mode Sweep}{77}{subsection.197}\protected@file@percent }
\newlabel{zinc_sulfide_te}{{6.4.1}{77}{TE Mode Sweep}{subsection.197}{}}
\@writefile{toc}{\contentsline {subsection}{\numberline {6.4.2}TM Mode Sweep}{77}{subsection.201}\protected@file@percent }
\newlabel{zinc_sulfide_tm}{{6.4.2}{77}{TM Mode Sweep}{subsection.201}{}}
\@writefile{lof}{\contentsline {figure}{\numberline {6.19}{\ignorespaces Zinc sulfide substrate raw results (TE)}}{79}{figure.caption.198}\protected@file@percent }
\newlabel{fig:zns_results_f}{{6.19}{79}{Zinc sulfide substrate raw results (TE)}{figure.caption.198}{}}
\@writefile{lof}{\contentsline {figure}{\numberline {6.20}{\ignorespaces Zinc sulfide substrate shift results (TE)}}{80}{figure.caption.199}\protected@file@percent }
\newlabel{fig:zns_shift_f}{{6.20}{80}{Zinc sulfide substrate shift results (TE)}{figure.caption.199}{}}
\@writefile{lof}{\contentsline {figure}{\numberline {6.21}{\ignorespaces Zinc sulfide substrate frequency detuning (TE)}}{80}{figure.caption.200}\protected@file@percent }
\newlabel{fig:zns_pcolor_f}{{6.21}{80}{Zinc sulfide substrate frequency detuning (TE)}{figure.caption.200}{}}
\@writefile{lof}{\contentsline {figure}{\numberline {6.22}{\ignorespaces Zinc sulfide substrate raw results (TM)}}{81}{figure.caption.202}\protected@file@percent }
\newlabel{fig:zns_results_f_tm}{{6.22}{81}{Zinc sulfide substrate raw results (TM)}{figure.caption.202}{}}
\@writefile{lof}{\contentsline {figure}{\numberline {6.23}{\ignorespaces Zinc sulfide substrate shift results (TM)}}{82}{figure.caption.203}\protected@file@percent }
\newlabel{fig:zns_shift_f_tm}{{6.23}{82}{Zinc sulfide substrate shift results (TM)}{figure.caption.203}{}}
\@writefile{lof}{\contentsline {figure}{\numberline {6.24}{\ignorespaces Zinc sulfide substrate frequency detuning (TM)}}{82}{figure.caption.204}\protected@file@percent }
\newlabel{fig:zns_pcolor_f_tm}{{6.24}{82}{Zinc sulfide substrate frequency detuning (TM)}{figure.caption.204}{}}
\@writefile{toc}{\contentsline {section}{\numberline {6.5}Sapphire}{83}{section.205}\protected@file@percent }
\newlabel{results:sapphire}{{6.5}{83}{Sapphire}{section.205}{}}
\@writefile{toc}{\contentsline {subsection}{\numberline {6.5.1}TE Mode Sweep}{83}{subsection.206}\protected@file@percent }
\newlabel{sapphire_te}{{6.5.1}{83}{TE Mode Sweep}{subsection.206}{}}
\@writefile{toc}{\contentsline {subsection}{\numberline {6.5.2}TM Mode Sweep}{83}{subsection.210}\protected@file@percent }
\newlabel{sapphire_tm}{{6.5.2}{83}{TM Mode Sweep}{subsection.210}{}}
\@writefile{lof}{\contentsline {figure}{\numberline {6.25}{\ignorespaces Sapphire substrate raw results (TE)}}{84}{figure.caption.207}\protected@file@percent }
\newlabel{fig:sap_results_f}{{6.25}{84}{Sapphire substrate raw results (TE)}{figure.caption.207}{}}
\@writefile{lof}{\contentsline {figure}{\numberline {6.26}{\ignorespaces Sapphire substrate shift results (TE)}}{85}{figure.caption.208}\protected@file@percent }
\newlabel{fig:sap_shift_f}{{6.26}{85}{Sapphire substrate shift results (TE)}{figure.caption.208}{}}
\@writefile{lof}{\contentsline {figure}{\numberline {6.27}{\ignorespaces Sapphire substrate frequency detuning (TE)}}{85}{figure.caption.209}\protected@file@percent }
\newlabel{fig:sap_pcolor_f}{{6.27}{85}{Sapphire substrate frequency detuning (TE)}{figure.caption.209}{}}
\@writefile{lof}{\contentsline {figure}{\numberline {6.28}{\ignorespaces Sapphire substrate raw results (TM)}}{86}{figure.caption.211}\protected@file@percent }
\newlabel{fig:sap_results_f_tm}{{6.28}{86}{Sapphire substrate raw results (TM)}{figure.caption.211}{}}
\@writefile{lof}{\contentsline {figure}{\numberline {6.29}{\ignorespaces Sapphire substrate shift results (TM)}}{87}{figure.caption.212}\protected@file@percent }
\newlabel{fig:sap_shift_f_tm}{{6.29}{87}{Sapphire substrate shift results (TM)}{figure.caption.212}{}}
\@writefile{lof}{\contentsline {figure}{\numberline {6.30}{\ignorespaces Sapphire substrate frequency detuning (TM)}}{87}{figure.caption.213}\protected@file@percent }
\newlabel{fig:sap_pcolor_f_tm}{{6.30}{87}{Sapphire substrate frequency detuning (TM)}{figure.caption.213}{}}
\@writefile{toc}{\contentsline {section}{\numberline {6.6}Optical Glass}{88}{section.214}\protected@file@percent }
\newlabel{results:optical_glass}{{6.6}{88}{Optical Glass}{section.214}{}}
\@writefile{toc}{\contentsline {subsection}{\numberline {6.6.1}TE Mode Sweep}{88}{subsection.215}\protected@file@percent }
\newlabel{optical_glass_te}{{6.6.1}{88}{TE Mode Sweep}{subsection.215}{}}
\@writefile{toc}{\contentsline {subsection}{\numberline {6.6.2}TM Mode Sweep}{88}{subsection.219}\protected@file@percent }
\newlabel{optical_glass_tm}{{6.6.2}{88}{TM Mode Sweep}{subsection.219}{}}
\@writefile{lof}{\contentsline {figure}{\numberline {6.31}{\ignorespaces Optical glass substrate raw results (TE)}}{90}{figure.caption.216}\protected@file@percent }
\newlabel{fig:opgl_results_f}{{6.31}{90}{Optical glass substrate raw results (TE)}{figure.caption.216}{}}
\@writefile{lof}{\contentsline {figure}{\numberline {6.32}{\ignorespaces Optical glass substrate shift results (TE)}}{91}{figure.caption.217}\protected@file@percent }
\newlabel{fig:opgl_shift_f}{{6.32}{91}{Optical glass substrate shift results (TE)}{figure.caption.217}{}}
\@writefile{lof}{\contentsline {figure}{\numberline {6.33}{\ignorespaces Optical glass substrate frequency detuning (TE)}}{91}{figure.caption.218}\protected@file@percent }
\newlabel{fig:opgl_pcolor_f}{{6.33}{91}{Optical glass substrate frequency detuning (TE)}{figure.caption.218}{}}
\@writefile{lof}{\contentsline {figure}{\numberline {6.34}{\ignorespaces Optical glass substrate raw results (TM)}}{92}{figure.caption.220}\protected@file@percent }
\newlabel{fig:opgl_results_f_tm}{{6.34}{92}{Optical glass substrate raw results (TM)}{figure.caption.220}{}}
\@writefile{lof}{\contentsline {figure}{\numberline {6.35}{\ignorespaces Optical glass substrate shift results (TM)}}{93}{figure.caption.221}\protected@file@percent }
\newlabel{fig:opgl_shift_f_tm}{{6.35}{93}{Optical glass substrate shift results (TM)}{figure.caption.221}{}}
\@writefile{lof}{\contentsline {figure}{\numberline {6.36}{\ignorespaces Optical glass substrate frequency detuning (TM)}}{93}{figure.caption.222}\protected@file@percent }
\newlabel{fig:opgl_pcolor_f_tm}{{6.36}{93}{Optical glass substrate frequency detuning (TM)}{figure.caption.222}{}}
\@writefile{toc}{\contentsline {section}{\numberline {6.7}Calcium Fluoride}{94}{section.223}\protected@file@percent }
\newlabel{results:calcium_fluoride}{{6.7}{94}{Calcium Fluoride}{section.223}{}}
\@writefile{toc}{\contentsline {subsection}{\numberline {6.7.1}TE Mode Sweep}{94}{subsection.224}\protected@file@percent }
\newlabel{calcium_fluoride_te}{{6.7.1}{94}{TE Mode Sweep}{subsection.224}{}}
\@writefile{toc}{\contentsline {subsection}{\numberline {6.7.2}TM Mode Sweep}{94}{subsection.228}\protected@file@percent }
\newlabel{calcium_fluoride_tm}{{6.7.2}{94}{TM Mode Sweep}{subsection.228}{}}
\@writefile{lof}{\contentsline {figure}{\numberline {6.37}{\ignorespaces Calcium fluoride substrate raw results (TE)}}{95}{figure.caption.225}\protected@file@percent }
\newlabel{fig:caf2_results_f}{{6.37}{95}{Calcium fluoride substrate raw results (TE)}{figure.caption.225}{}}
\@writefile{lof}{\contentsline {figure}{\numberline {6.38}{\ignorespaces Calcium fluoride substrate shift results (TE)}}{96}{figure.caption.226}\protected@file@percent }
\newlabel{fig:caf2_shift_f}{{6.38}{96}{Calcium fluoride substrate shift results (TE)}{figure.caption.226}{}}
\@writefile{lof}{\contentsline {figure}{\numberline {6.39}{\ignorespaces Calcium fluoride substrate frequency detuning (TE)}}{96}{figure.caption.227}\protected@file@percent }
\newlabel{fig:caf2_pcolor_f}{{6.39}{96}{Calcium fluoride substrate frequency detuning (TE)}{figure.caption.227}{}}
\@writefile{lof}{\contentsline {figure}{\numberline {6.40}{\ignorespaces Calcium fluoride substrate raw results (TM)}}{97}{figure.caption.229}\protected@file@percent }
\newlabel{fig:caf2_results_f_tm}{{6.40}{97}{Calcium fluoride substrate raw results (TM)}{figure.caption.229}{}}
\@writefile{lof}{\contentsline {figure}{\numberline {6.41}{\ignorespaces Calcium fluoride substrate shift results (TM)}}{98}{figure.caption.230}\protected@file@percent }
\newlabel{fig:caf2_shift_f_tm}{{6.41}{98}{Calcium fluoride substrate shift results (TM)}{figure.caption.230}{}}
\@writefile{lof}{\contentsline {figure}{\numberline {6.42}{\ignorespaces Calcium fluoride substrate frequency detuning (TM)}}{98}{figure.caption.231}\protected@file@percent }
\newlabel{fig:caf2_pcolor_f_tm}{{6.42}{98}{Calcium fluoride substrate frequency detuning (TM)}{figure.caption.231}{}}
\newlabel{fig:foreman_frequency_shift}{{6.43a}{99}{Here we take the results of the frequency shift of the mode from each substrate at their respective contact points to show the effect that the change in refractive index has on the frequency of a mode.\relax }{figure.caption.233}{}}
\newlabel{sub@fig:foreman_frequency_shift}{{a}{99}{Here we take the results of the frequency shift of the mode from each substrate at their respective contact points to show the effect that the change in refractive index has on the frequency of a mode.\relax }{figure.caption.233}{}}
\newlabel{fig:foreman_fig_3a}{{6.43b}{99}{Foreman figure 3a is reinserted here for reference.\relax }{figure.caption.233}{}}
\newlabel{sub@fig:foreman_fig_3a}{{b}{99}{Foreman figure 3a is reinserted here for reference.\relax }{figure.caption.233}{}}
\@writefile{lof}{\contentsline {figure}{\numberline {6.43}{\ignorespaces Effect of substrate refractive index on mode frequency}}{99}{figure.caption.233}\protected@file@percent }
\newlabel{fig:frequency_shift_both}{{6.43}{99}{Effect of substrate refractive index on mode frequency}{figure.caption.233}{}}
\@writefile{toc}{\contentsline {section}{\numberline {6.8}Substrate Refractive Index Effects on WGMR Modes}{99}{section.232}\protected@file@percent }
\newlabel{substrate_refractive_index_effects}{{6.8}{99}{Substrate Refractive Index Effects on WGMR Modes}{section.232}{}}
\newlabel{fig:foreman_mode_broadening}{{6.44a}{100}{Here we take the results of the broadening of the mode from each substrate at their respective contact points to show the effect that the change in refractive index has on the broadening of a mode.\relax }{figure.caption.234}{}}
\newlabel{sub@fig:foreman_mode_broadening}{{a}{100}{Here we take the results of the broadening of the mode from each substrate at their respective contact points to show the effect that the change in refractive index has on the broadening of a mode.\relax }{figure.caption.234}{}}
\newlabel{fig:mode_broadening_foreman}{{6.44b}{100}{Foreman figure 3b is reinserted here for reference.\relax }{figure.caption.234}{}}
\newlabel{sub@fig:mode_broadening_foreman}{{b}{100}{Foreman figure 3b is reinserted here for reference.\relax }{figure.caption.234}{}}
\@writefile{lof}{\contentsline {figure}{\numberline {6.44}{\ignorespaces Effect of substrate refractive index on mode broadening}}{100}{figure.caption.234}\protected@file@percent }
\newlabel{fig:mode_broadening_both}{{6.44}{100}{Effect of substrate refractive index on mode broadening}{figure.caption.234}{}}
\@setckpt{Chapters/Chapter6}{
\setcounter{page}{101}
\setcounter{equation}{0}
\setcounter{enumi}{3}
\setcounter{enumii}{0}
\setcounter{enumiii}{0}
\setcounter{enumiv}{0}
\setcounter{footnote}{0}
\setcounter{mpfootnote}{0}
\setcounter{part}{0}
\setcounter{chapter}{6}
\setcounter{section}{8}
\setcounter{subsection}{0}
\setcounter{subsubsection}{0}
\setcounter{paragraph}{0}
\setcounter{subparagraph}{0}
\setcounter{figure}{44}
\setcounter{table}{0}
\setcounter{LT@tables}{1}
\setcounter{LT@chunks}{1}
\setcounter{caption@flags}{0}
\setcounter{ContinuedFloat}{0}
\setcounter{tabx@nest}{0}
\setcounter{listtotal}{0}
\setcounter{listcount}{0}
\setcounter{liststart}{0}
\setcounter{liststop}{0}
\setcounter{citecount}{0}
\setcounter{citetotal}{0}
\setcounter{multicitecount}{0}
\setcounter{multicitetotal}{0}
\setcounter{instcount}{95}
\setcounter{maxnames}{3}
\setcounter{minnames}{1}
\setcounter{maxitems}{3}
\setcounter{minitems}{1}
\setcounter{citecounter}{0}
\setcounter{maxcitecounter}{0}
\setcounter{savedcitecounter}{0}
\setcounter{uniquelist}{0}
\setcounter{uniquename}{0}
\setcounter{refsection}{0}
\setcounter{refsegment}{0}
\setcounter{maxextratitle}{0}
\setcounter{maxextratitleyear}{0}
\setcounter{maxextraname}{0}
\setcounter{maxextradate}{0}
\setcounter{maxextraalpha}{0}
\setcounter{abbrvpenalty}{50}
\setcounter{highnamepenalty}{50}
\setcounter{lownamepenalty}{25}
\setcounter{maxparens}{3}
\setcounter{parenlevel}{0}
\setcounter{mincomprange}{10}
\setcounter{maxcomprange}{100000}
\setcounter{mincompwidth}{1}
\setcounter{afterword}{0}
\setcounter{savedafterword}{0}
\setcounter{annotator}{0}
\setcounter{savedannotator}{0}
\setcounter{author}{0}
\setcounter{savedauthor}{0}
\setcounter{bookauthor}{0}
\setcounter{savedbookauthor}{0}
\setcounter{commentator}{0}
\setcounter{savedcommentator}{0}
\setcounter{editor}{0}
\setcounter{savededitor}{0}
\setcounter{editora}{0}
\setcounter{savededitora}{0}
\setcounter{editorb}{0}
\setcounter{savededitorb}{0}
\setcounter{editorc}{0}
\setcounter{savededitorc}{0}
\setcounter{foreword}{0}
\setcounter{savedforeword}{0}
\setcounter{holder}{0}
\setcounter{savedholder}{0}
\setcounter{introduction}{0}
\setcounter{savedintroduction}{0}
\setcounter{namea}{0}
\setcounter{savednamea}{0}
\setcounter{nameb}{0}
\setcounter{savednameb}{0}
\setcounter{namec}{0}
\setcounter{savednamec}{0}
\setcounter{translator}{0}
\setcounter{savedtranslator}{0}
\setcounter{shortauthor}{0}
\setcounter{savedshortauthor}{0}
\setcounter{shorteditor}{0}
\setcounter{savedshorteditor}{0}
\setcounter{labelname}{0}
\setcounter{savedlabelname}{0}
\setcounter{institution}{0}
\setcounter{savedinstitution}{0}
\setcounter{lista}{0}
\setcounter{savedlista}{0}
\setcounter{listb}{0}
\setcounter{savedlistb}{0}
\setcounter{listc}{0}
\setcounter{savedlistc}{0}
\setcounter{listd}{0}
\setcounter{savedlistd}{0}
\setcounter{liste}{0}
\setcounter{savedliste}{0}
\setcounter{listf}{0}
\setcounter{savedlistf}{0}
\setcounter{location}{0}
\setcounter{savedlocation}{0}
\setcounter{organization}{0}
\setcounter{savedorganization}{0}
\setcounter{origlocation}{0}
\setcounter{savedoriglocation}{0}
\setcounter{origpublisher}{0}
\setcounter{savedorigpublisher}{0}
\setcounter{publisher}{0}
\setcounter{savedpublisher}{0}
\setcounter{language}{0}
\setcounter{savedlanguage}{0}
\setcounter{origlanguage}{0}
\setcounter{savedoriglanguage}{0}
\setcounter{pageref}{0}
\setcounter{savedpageref}{0}
\setcounter{textcitecount}{0}
\setcounter{textcitetotal}{0}
\setcounter{textcitemaxnames}{0}
\setcounter{biburlnumpenalty}{0}
\setcounter{biburlucpenalty}{0}
\setcounter{biburllcpenalty}{0}
\setcounter{smartand}{1}
\setcounter{bbx:relatedcount}{0}
\setcounter{bbx:relatedtotal}{0}
\setcounter{subfigure}{2}
\setcounter{subtable}{0}
\setcounter{r@tfl@t}{1}
\setcounter{parentequation}{0}
\setcounter{Item}{19}
\setcounter{Hfootnote}{0}
\setcounter{bookmark@seq@number}{108}
\setcounter{section@level}{1}
}
