\relax 
\providecommand\hyper@newdestlabel[2]{}
\@writefile{toc}{\contentsline {chapter}{\numberline {2}Whispering Gallery Mode Resonator Fabrication}{7}{chapter.20}\protected@file@percent }
\@writefile{lof}{\addvspace {10\p@ }}
\@writefile{lot}{\addvspace {10\p@ }}
\newlabel{Chapter2}{{2}{7}{Whispering Gallery Mode Resonator Fabrication}{chapter.20}{}}
\@writefile{toc}{\contentsline {section}{\numberline {2.1}Fabrication Methods}{7}{section.21}\protected@file@percent }
\newlabel{fabrication_methods}{{2.1}{7}{Fabrication Methods}{section.21}{}}
\@writefile{toc}{\contentsline {section}{\numberline {2.2}Fabrication Component Discussion}{7}{section.22}\protected@file@percent }
\newlabel{fabrication_component_discussion}{{2.2}{7}{Fabrication Component Discussion}{section.22}{}}
\@writefile{toc}{\contentsline {subsection}{\numberline {2.2.1}Lathe}{7}{subsection.23}\protected@file@percent }
\@writefile{lof}{\contentsline {figure}{\numberline {2.1}{\ignorespaces Laboratory lathe}}{8}{figure.caption.24}\protected@file@percent }
\newlabel{fig:lathe}{{2.1}{8}{Laboratory lathe}{figure.caption.24}{}}
\@writefile{toc}{\contentsline {subsection}{\numberline {2.2.2}Turning Machine}{8}{subsection.25}\protected@file@percent }
\@writefile{toc}{\contentsline {subsection}{\numberline {2.2.3}Paraffin Wax}{8}{subsection.27}\protected@file@percent }
\newlabel{fig:stage}{{2.2a}{9}{Two uni-axial translators are mounted perpendicular to each other to produce a stage with a large rage of movement. It can be controlled through a joystick or via a computer. The clamps allow for objects to be mounted on it such as the diamond cutter (pictured right).\relax }{figure.caption.26}{}}
\newlabel{sub@fig:stage}{{a}{9}{Two uni-axial translators are mounted perpendicular to each other to produce a stage with a large rage of movement. It can be controlled through a joystick or via a computer. The clamps allow for objects to be mounted on it such as the diamond cutter (pictured right).\relax }{figure.caption.26}{}}
\newlabel{fig:diamond_cutter}{{2.2b}{9}{The diamond cutter used for the fabrication of WGMRs. The diamond tip can be seen protruding to the right. The diamond tip can be exchanged using a screw. This allows for customisable precision with smaller or larger diamond tips based on the requirements.\relax }{figure.caption.26}{}}
\newlabel{sub@fig:diamond_cutter}{{b}{9}{The diamond cutter used for the fabrication of WGMRs. The diamond tip can be seen protruding to the right. The diamond tip can be exchanged using a screw. This allows for customisable precision with smaller or larger diamond tips based on the requirements.\relax }{figure.caption.26}{}}
\@writefile{lof}{\contentsline {figure}{\numberline {2.2}{\ignorespaces Newton's rings illustration}}{9}{figure.caption.26}\protected@file@percent }
\newlabel{fig:turning_machine}{{2.2}{9}{Newton's rings illustration}{figure.caption.26}{}}
\@writefile{toc}{\contentsline {subsection}{\numberline {2.2.4}Brass Rod}{9}{subsection.33}\protected@file@percent }
\@writefile{lof}{\contentsline {figure}{\numberline {2.3}{\ignorespaces Hot plate}}{10}{figure.caption.32}\protected@file@percent }
\newlabel{fig:hot_plate}{{2.3}{10}{Hot plate}{figure.caption.32}{}}
\@writefile{toc}{\contentsline {section}{\numberline {2.3}Computer Control}{10}{section.34}\protected@file@percent }
\newlabel{computer_control}{{2.3}{10}{Computer Control}{section.34}{}}
\@writefile{toc}{\contentsline {section}{\numberline {2.4}Lithium Niobate Resonator Fabrication Process}{10}{section.36}\protected@file@percent }
\newlabel{lithium_niobate_resonator_fabrication_process}{{2.4}{10}{Lithium Niobate Resonator Fabrication Process}{section.36}{}}
\@writefile{toc}{\contentsline {subsection}{\numberline {2.4.1}Drilling The Precursor}{10}{subsection.37}\protected@file@percent }
\@writefile{lof}{\contentsline {figure}{\numberline {2.4}{\ignorespaces Turning machine screenshot}}{11}{figure.caption.35}\protected@file@percent }
\newlabel{fig:lathe_program}{{2.4}{11}{Turning machine screenshot}{figure.caption.35}{}}
\@writefile{toc}{\contentsline {subsection}{\numberline {2.4.2}Mounting The Precursor}{11}{subsection.38}\protected@file@percent }
\@writefile{lof}{\contentsline {figure}{\numberline {2.5}{\ignorespaces Flattening device}}{12}{figure.caption.39}\protected@file@percent }
\newlabel{fig:flattener}{{2.5}{12}{Flattening device}{figure.caption.39}{}}
\@writefile{toc}{\contentsline {subsection}{\numberline {2.4.3}Cutting The Resonator}{12}{subsection.40}\protected@file@percent }
\@writefile{toc}{\contentsline {section}{\numberline {2.5}Polishing of WGMRs}{12}{section.42}\protected@file@percent }
\newlabel{polishing_of_whispering_gallery_mode_resonators}{{2.5}{12}{Polishing of WGMRs}{section.42}{}}
\@writefile{lof}{\contentsline {figure}{\numberline {2.6}{\ignorespaces Negative rake angle schematic}}{13}{figure.caption.41}\protected@file@percent }
\newlabel{fig:negative_rake_angle}{{2.6}{13}{Negative rake angle schematic}{figure.caption.41}{}}
\@writefile{toc}{\contentsline {section}{\numberline {2.6}Cleaning of WGMRs}{13}{section.44}\protected@file@percent }
\newlabel{cleaning_of_whispering_gallery_mode_resonators}{{2.6}{13}{Cleaning of WGMRs}{section.44}{}}
\@writefile{lof}{\contentsline {figure}{\numberline {2.7}{\ignorespaces Polishing slurries}}{14}{figure.caption.43}\protected@file@percent }
\newlabel{fig:slurries}{{2.7}{14}{Polishing slurries}{figure.caption.43}{}}
\@writefile{toc}{\contentsline {section}{\numberline {2.7}Maintenance of WGMRs}{14}{section.45}\protected@file@percent }
\newlabel{maitenance_of_whispering_gallery_mode_resonators}{{2.7}{14}{Maintenance of WGMRs}{section.45}{}}
\@setckpt{Chapters/Chapter2}{
\setcounter{page}{15}
\setcounter{equation}{0}
\setcounter{enumi}{4}
\setcounter{enumii}{0}
\setcounter{enumiii}{0}
\setcounter{enumiv}{0}
\setcounter{footnote}{0}
\setcounter{mpfootnote}{0}
\setcounter{part}{0}
\setcounter{chapter}{2}
\setcounter{section}{7}
\setcounter{subsection}{0}
\setcounter{subsubsection}{0}
\setcounter{paragraph}{0}
\setcounter{subparagraph}{0}
\setcounter{figure}{7}
\setcounter{table}{0}
\setcounter{LT@tables}{1}
\setcounter{LT@chunks}{1}
\setcounter{caption@flags}{0}
\setcounter{ContinuedFloat}{0}
\setcounter{tabx@nest}{0}
\setcounter{listtotal}{0}
\setcounter{listcount}{0}
\setcounter{liststart}{0}
\setcounter{liststop}{0}
\setcounter{citecount}{0}
\setcounter{citetotal}{0}
\setcounter{multicitecount}{0}
\setcounter{multicitetotal}{0}
\setcounter{instcount}{29}
\setcounter{maxnames}{3}
\setcounter{minnames}{1}
\setcounter{maxitems}{3}
\setcounter{minitems}{1}
\setcounter{citecounter}{0}
\setcounter{maxcitecounter}{0}
\setcounter{savedcitecounter}{0}
\setcounter{uniquelist}{0}
\setcounter{uniquename}{0}
\setcounter{refsection}{0}
\setcounter{refsegment}{0}
\setcounter{maxextratitle}{0}
\setcounter{maxextratitleyear}{0}
\setcounter{maxextraname}{0}
\setcounter{maxextradate}{0}
\setcounter{maxextraalpha}{0}
\setcounter{abbrvpenalty}{50}
\setcounter{highnamepenalty}{50}
\setcounter{lownamepenalty}{25}
\setcounter{maxparens}{3}
\setcounter{parenlevel}{0}
\setcounter{mincomprange}{10}
\setcounter{maxcomprange}{100000}
\setcounter{mincompwidth}{1}
\setcounter{afterword}{0}
\setcounter{savedafterword}{0}
\setcounter{annotator}{0}
\setcounter{savedannotator}{0}
\setcounter{author}{0}
\setcounter{savedauthor}{0}
\setcounter{bookauthor}{0}
\setcounter{savedbookauthor}{0}
\setcounter{commentator}{0}
\setcounter{savedcommentator}{0}
\setcounter{editor}{0}
\setcounter{savededitor}{0}
\setcounter{editora}{0}
\setcounter{savededitora}{0}
\setcounter{editorb}{0}
\setcounter{savededitorb}{0}
\setcounter{editorc}{0}
\setcounter{savededitorc}{0}
\setcounter{foreword}{0}
\setcounter{savedforeword}{0}
\setcounter{holder}{0}
\setcounter{savedholder}{0}
\setcounter{introduction}{0}
\setcounter{savedintroduction}{0}
\setcounter{namea}{0}
\setcounter{savednamea}{0}
\setcounter{nameb}{0}
\setcounter{savednameb}{0}
\setcounter{namec}{0}
\setcounter{savednamec}{0}
\setcounter{translator}{0}
\setcounter{savedtranslator}{0}
\setcounter{shortauthor}{0}
\setcounter{savedshortauthor}{0}
\setcounter{shorteditor}{0}
\setcounter{savedshorteditor}{0}
\setcounter{labelname}{0}
\setcounter{savedlabelname}{0}
\setcounter{institution}{0}
\setcounter{savedinstitution}{0}
\setcounter{lista}{0}
\setcounter{savedlista}{0}
\setcounter{listb}{0}
\setcounter{savedlistb}{0}
\setcounter{listc}{0}
\setcounter{savedlistc}{0}
\setcounter{listd}{0}
\setcounter{savedlistd}{0}
\setcounter{liste}{0}
\setcounter{savedliste}{0}
\setcounter{listf}{0}
\setcounter{savedlistf}{0}
\setcounter{location}{0}
\setcounter{savedlocation}{0}
\setcounter{organization}{0}
\setcounter{savedorganization}{0}
\setcounter{origlocation}{0}
\setcounter{savedoriglocation}{0}
\setcounter{origpublisher}{0}
\setcounter{savedorigpublisher}{0}
\setcounter{publisher}{0}
\setcounter{savedpublisher}{0}
\setcounter{language}{0}
\setcounter{savedlanguage}{0}
\setcounter{origlanguage}{0}
\setcounter{savedoriglanguage}{0}
\setcounter{pageref}{0}
\setcounter{savedpageref}{0}
\setcounter{textcitecount}{0}
\setcounter{textcitetotal}{0}
\setcounter{textcitemaxnames}{0}
\setcounter{biburlnumpenalty}{0}
\setcounter{biburlucpenalty}{0}
\setcounter{biburllcpenalty}{0}
\setcounter{smartand}{1}
\setcounter{bbx:relatedcount}{0}
\setcounter{bbx:relatedtotal}{0}
\setcounter{subfigure}{0}
\setcounter{subtable}{0}
\setcounter{r@tfl@t}{0}
\setcounter{parentequation}{0}
\setcounter{Item}{4}
\setcounter{Hfootnote}{0}
\setcounter{bookmark@seq@number}{27}
\setcounter{section@level}{1}
}
