\relax 
\providecommand\hyper@newdestlabel[2]{}
\@writefile{toc}{\contentsline {chapter}{\numberline {5}Experimental Method}{53}{chapter.159}\protected@file@percent }
\@writefile{lof}{\addvspace {10\p@ }}
\@writefile{lot}{\addvspace {10\p@ }}
\newlabel{Chapter5}{{5}{53}{Experimental Method}{chapter.159}{}}
\@writefile{toc}{\contentsline {section}{\numberline {5.1}Pre-Sweep Calibrations}{53}{section.160}\protected@file@percent }
\newlabel{pre-sweep_calibrations}{{5.1}{53}{Pre-Sweep Calibrations}{section.160}{}}
\@writefile{toc}{\contentsline {subsection}{\numberline {5.1.1}Polarisation Control}{54}{subsection.161}\protected@file@percent }
\newlabel{polarisation_control}{{5.1.1}{54}{Polarisation Control}{subsection.161}{}}
\@writefile{toc}{\contentsline {subsubsection}{Polarising Beam Splitter}{54}{section*.162}\protected@file@percent }
\newlabel{polarising_beam_splitter}{{5.1.1}{54}{Polarising Beam Splitter}{section*.162}{}}
\@writefile{toc}{\contentsline {subsubsection}{Paddle Fibre Polarisation Controller}{54}{section*.164}\protected@file@percent }
\newlabel{paddle_fibre_polarisation_controller}{{5.1.1}{54}{Paddle Fibre Polarisation Controller}{section*.164}{}}
\newlabel{fig:pbs_image}{{5.1a}{55}{Photograph of the PBS used to ensure the correct polarisation of light is tested.\relax }{figure.caption.163}{}}
\newlabel{sub@fig:pbs_image}{{a}{55}{Photograph of the PBS used to ensure the correct polarisation of light is tested.\relax }{figure.caption.163}{}}
\newlabel{fig:pbs_diagram}{{5.1b}{55}{Diagram showing how the PBS works with an example light ray passing through it. Note the incident beam contains both TE and TM polarised light however the PBS splits this into a reflected beam of TM light and a transmitted beam of TE light. The polarisation of the transmitted and reflected beams is dependant on the orientation of the PBS relative to the incident light wave.\relax }{figure.caption.163}{}}
\newlabel{sub@fig:pbs_diagram}{{b}{55}{Diagram showing how the PBS works with an example light ray passing through it. Note the incident beam contains both TE and TM polarised light however the PBS splits this into a reflected beam of TM light and a transmitted beam of TE light. The polarisation of the transmitted and reflected beams is dependant on the orientation of the PBS relative to the incident light wave.\relax }{figure.caption.163}{}}
\@writefile{lof}{\contentsline {figure}{\numberline {5.1}{\ignorespaces Polarising Beam Splitter}}{55}{figure.caption.163}\protected@file@percent }
\newlabel{fig:pbs}{{5.1}{55}{Polarising Beam Splitter}{figure.caption.163}{}}
\@writefile{lof}{\contentsline {figure}{\numberline {5.2}{\ignorespaces Paddle Fibre Polarisation Controller}}{55}{figure.caption.165}\protected@file@percent }
\newlabel{fig:polarisation_control}{{5.2}{55}{Paddle Fibre Polarisation Controller}{figure.caption.165}{}}
\@writefile{toc}{\contentsline {subsubsection}{Polarisation Test}{55}{section*.166}\protected@file@percent }
\@writefile{toc}{\contentsline {section}{\numberline {5.2}Data Collection Method}{56}{section.167}\protected@file@percent }
\newlabel{data_collection_method}{{5.2}{56}{Data Collection Method}{section.167}{}}
\@setckpt{Chapters/Chapter5}{
\setcounter{page}{58}
\setcounter{equation}{0}
\setcounter{enumi}{3}
\setcounter{enumii}{0}
\setcounter{enumiii}{0}
\setcounter{enumiv}{0}
\setcounter{footnote}{0}
\setcounter{mpfootnote}{0}
\setcounter{part}{0}
\setcounter{chapter}{5}
\setcounter{section}{2}
\setcounter{subsection}{0}
\setcounter{subsubsection}{0}
\setcounter{paragraph}{0}
\setcounter{subparagraph}{0}
\setcounter{figure}{2}
\setcounter{table}{0}
\setcounter{LT@tables}{1}
\setcounter{LT@chunks}{1}
\setcounter{caption@flags}{0}
\setcounter{ContinuedFloat}{0}
\setcounter{tabx@nest}{0}
\setcounter{listtotal}{0}
\setcounter{listcount}{0}
\setcounter{liststart}{0}
\setcounter{liststop}{0}
\setcounter{citecount}{0}
\setcounter{citetotal}{0}
\setcounter{multicitecount}{0}
\setcounter{multicitetotal}{0}
\setcounter{instcount}{81}
\setcounter{maxnames}{3}
\setcounter{minnames}{1}
\setcounter{maxitems}{3}
\setcounter{minitems}{1}
\setcounter{citecounter}{0}
\setcounter{maxcitecounter}{0}
\setcounter{savedcitecounter}{0}
\setcounter{uniquelist}{0}
\setcounter{uniquename}{0}
\setcounter{refsection}{0}
\setcounter{refsegment}{0}
\setcounter{maxextratitle}{0}
\setcounter{maxextratitleyear}{0}
\setcounter{maxextraname}{0}
\setcounter{maxextradate}{0}
\setcounter{maxextraalpha}{0}
\setcounter{abbrvpenalty}{50}
\setcounter{highnamepenalty}{50}
\setcounter{lownamepenalty}{25}
\setcounter{maxparens}{3}
\setcounter{parenlevel}{0}
\setcounter{mincomprange}{10}
\setcounter{maxcomprange}{100000}
\setcounter{mincompwidth}{1}
\setcounter{afterword}{0}
\setcounter{savedafterword}{0}
\setcounter{annotator}{0}
\setcounter{savedannotator}{0}
\setcounter{author}{0}
\setcounter{savedauthor}{0}
\setcounter{bookauthor}{0}
\setcounter{savedbookauthor}{0}
\setcounter{commentator}{0}
\setcounter{savedcommentator}{0}
\setcounter{editor}{0}
\setcounter{savededitor}{0}
\setcounter{editora}{0}
\setcounter{savededitora}{0}
\setcounter{editorb}{0}
\setcounter{savededitorb}{0}
\setcounter{editorc}{0}
\setcounter{savededitorc}{0}
\setcounter{foreword}{0}
\setcounter{savedforeword}{0}
\setcounter{holder}{0}
\setcounter{savedholder}{0}
\setcounter{introduction}{0}
\setcounter{savedintroduction}{0}
\setcounter{namea}{0}
\setcounter{savednamea}{0}
\setcounter{nameb}{0}
\setcounter{savednameb}{0}
\setcounter{namec}{0}
\setcounter{savednamec}{0}
\setcounter{translator}{0}
\setcounter{savedtranslator}{0}
\setcounter{shortauthor}{0}
\setcounter{savedshortauthor}{0}
\setcounter{shorteditor}{0}
\setcounter{savedshorteditor}{0}
\setcounter{labelname}{0}
\setcounter{savedlabelname}{0}
\setcounter{institution}{0}
\setcounter{savedinstitution}{0}
\setcounter{lista}{0}
\setcounter{savedlista}{0}
\setcounter{listb}{0}
\setcounter{savedlistb}{0}
\setcounter{listc}{0}
\setcounter{savedlistc}{0}
\setcounter{listd}{0}
\setcounter{savedlistd}{0}
\setcounter{liste}{0}
\setcounter{savedliste}{0}
\setcounter{listf}{0}
\setcounter{savedlistf}{0}
\setcounter{location}{0}
\setcounter{savedlocation}{0}
\setcounter{organization}{0}
\setcounter{savedorganization}{0}
\setcounter{origlocation}{0}
\setcounter{savedoriglocation}{0}
\setcounter{origpublisher}{0}
\setcounter{savedorigpublisher}{0}
\setcounter{publisher}{0}
\setcounter{savedpublisher}{0}
\setcounter{language}{0}
\setcounter{savedlanguage}{0}
\setcounter{origlanguage}{0}
\setcounter{savedoriglanguage}{0}
\setcounter{pageref}{0}
\setcounter{savedpageref}{0}
\setcounter{textcitecount}{0}
\setcounter{textcitetotal}{0}
\setcounter{textcitemaxnames}{0}
\setcounter{biburlnumpenalty}{0}
\setcounter{biburlucpenalty}{0}
\setcounter{biburllcpenalty}{0}
\setcounter{smartand}{1}
\setcounter{bbx:relatedcount}{0}
\setcounter{bbx:relatedtotal}{0}
\setcounter{subfigure}{0}
\setcounter{subtable}{0}
\setcounter{r@tfl@t}{1}
\setcounter{parentequation}{0}
\setcounter{Item}{19}
\setcounter{Hfootnote}{0}
\setcounter{bookmark@seq@number}{85}
\setcounter{section@level}{1}
}
