\relax 
\bibstyle{biblatex}
\bibdata{main-blx,bibliography}
\citation{biblatex-control}
\abx@aux@refcontext{none/global//global/global}
\providecommand\HyperFirstAtBeginDocument{\AtBeginDocument}
\HyperFirstAtBeginDocument{\ifx\hyper@anchor\@undefined
\global\let\oldcontentsline\contentsline
\gdef\contentsline#1#2#3#4{\oldcontentsline{#1}{#2}{#3}}
\global\let\oldnewlabel\newlabel
\gdef\newlabel#1#2{\newlabelxx{#1}#2}
\gdef\newlabelxx#1#2#3#4#5#6{\oldnewlabel{#1}{{#2}{#3}}}
\AtEndDocument{\ifx\hyper@anchor\@undefined
\let\contentsline\oldcontentsline
\let\newlabel\oldnewlabel
\fi}
\fi}
\global\let\hyper@last\relax 
\gdef\HyperFirstAtBeginDocument#1{#1}
\providecommand\HyField@AuxAddToFields[1]{}
\providecommand\HyField@AuxAddToCoFields[2]{}
\@writefile{toc}{\boolfalse {citerequest}\boolfalse {citetracker}\boolfalse {pagetracker}\boolfalse {backtracker}\relax }
\@writefile{lof}{\boolfalse {citerequest}\boolfalse {citetracker}\boolfalse {pagetracker}\boolfalse {backtracker}\relax }
\@writefile{lot}{\boolfalse {citerequest}\boolfalse {citetracker}\boolfalse {pagetracker}\boolfalse {backtracker}\relax }
\babel@aux{english}{}
\@writefile{toc}{\contentsline {chapter}{Declaration of Authorship}{iii}{section*.1}\protected@file@percent }
\@writefile{toc}{\contentsline {chapter}{Abstract}{vii}{section*.2}\protected@file@percent }
\@writefile{toc}{\contentsline {chapter}{Acknowledgements}{ix}{section*.3}\protected@file@percent }
\@writefile{toc}{\contentsline {chapter}{List of Figures}{xv}{chapter*.5}\protected@file@percent }
\gdef \LT@i {\LT@entry 
    {1}{50.92717pt}\LT@entry 
    {1}{192.1474pt}}
\@writefile{toc}{\contentsline {chapter}{List of Abbreviations}{xvii}{chapter*.6}\protected@file@percent }
\@input{Chapters/Chapter1.aux}
\citation{dearsley_exploring_nodate}
\abx@aux@cite{dearsley_exploring_nodate}
\abx@aux@segm{0}{0}{dearsley_exploring_nodate}
\citation{dearsley_exploring_nodate}
\abx@aux@segm{0}{0}{dearsley_exploring_nodate}
\citation{rayleigh_theory_1877}
\abx@aux@cite{rayleigh_theory_1877}
\abx@aux@segm{0}{0}{rayleigh_theory_1877}
\citation{mie_beitrage_1908}
\abx@aux@cite{mie_beitrage_1908}
\abx@aux@segm{0}{0}{mie_beitrage_1908}
\citation{debye_lichtdruck_1909}
\abx@aux@cite{debye_lichtdruck_1909}
\abx@aux@segm{0}{0}{debye_lichtdruck_1909}
\citation{foreman_dielectric_2016}
\abx@aux@cite{foreman_dielectric_2016}
\abx@aux@segm{0}{0}{foreman_dielectric_2016}
\citation{foreman_dielectric_2016}
\abx@aux@segm{0}{0}{foreman_dielectric_2016}
\citation{foreman_dielectric_2016}
\abx@aux@segm{0}{0}{foreman_dielectric_2016}
\citation{foreman_dielectric_2016}
\abx@aux@segm{0}{0}{foreman_dielectric_2016}
\citation{foreman_dielectric_2016}
\abx@aux@segm{0}{0}{foreman_dielectric_2016}
\citation{foreman_dielectric_2016}
\abx@aux@segm{0}{0}{foreman_dielectric_2016}
\citation{foreman_dielectric_2016}
\abx@aux@segm{0}{0}{foreman_dielectric_2016}
\citation{foreman_dielectric_2016}
\abx@aux@segm{0}{0}{foreman_dielectric_2016}
\citation{foreman_dielectric_2016}
\abx@aux@segm{0}{0}{foreman_dielectric_2016}
\citation{vogt_anomalous_2019}
\abx@aux@cite{vogt_anomalous_2019}
\abx@aux@segm{0}{0}{vogt_anomalous_2019}
\citation{vogt_anomalous_2019}
\abx@aux@segm{0}{0}{vogt_anomalous_2019}
\citation{vogt_anomalous_2019}
\abx@aux@segm{0}{0}{vogt_anomalous_2019}
\citation{foreman_dielectric_2016}
\abx@aux@segm{0}{0}{foreman_dielectric_2016}
\citation{foreman_dielectric_2016}
\abx@aux@segm{0}{0}{foreman_dielectric_2016}
\citation{foreman_dielectric_2016}
\abx@aux@segm{0}{0}{foreman_dielectric_2016}
\citation{vogt_anomalous_2019}
\abx@aux@segm{0}{0}{vogt_anomalous_2019}
\@input{Chapters/Chapter2.aux}
\citation{foreman_dielectric_2016}
\abx@aux@segm{0}{0}{foreman_dielectric_2016}
\@input{Chapters/Chapter3.aux}
\citation{trainor_selective_2018}
\abx@aux@cite{trainor_selective_2018}
\abx@aux@segm{0}{0}{trainor_selective_2018}
\citation{sedlmeir_experimental_2013}
\abx@aux@cite{sedlmeir_experimental_2013}
\abx@aux@segm{0}{0}{sedlmeir_experimental_2013}
\citation{gorodetsky_optical_1999}
\abx@aux@cite{gorodetsky_optical_1999}
\abx@aux@segm{0}{0}{gorodetsky_optical_1999}
\citation{knight_phase-matched_1997}
\abx@aux@cite{knight_phase-matched_1997}
\abx@aux@segm{0}{0}{knight_phase-matched_1997}
\citation{foreman_dielectric_2016}
\abx@aux@segm{0}{0}{foreman_dielectric_2016}
\citation{breunig_whispering_2013}
\abx@aux@cite{breunig_whispering_2013}
\abx@aux@segm{0}{0}{breunig_whispering_2013}
\citation{breunig_whispering_2013}
\abx@aux@segm{0}{0}{breunig_whispering_2013}
\citation{breunig_whispering_2013}
\abx@aux@segm{0}{0}{breunig_whispering_2013}
\citation{werner_control_2018}
\abx@aux@cite{werner_control_2018}
\abx@aux@segm{0}{0}{werner_control_2018}
\@input{Chapters/Chapter4.aux}
\citation{foreman_dielectric_2016}
\abx@aux@segm{0}{0}{foreman_dielectric_2016}
\citation{foreman_dielectric_2016}
\abx@aux@segm{0}{0}{foreman_dielectric_2016}
\citation{foreman_dielectric_2016}
\abx@aux@segm{0}{0}{foreman_dielectric_2016}
\citation{foreman_dielectric_2016}
\abx@aux@segm{0}{0}{foreman_dielectric_2016}
\citation{foreman_dielectric_2016}
\abx@aux@segm{0}{0}{foreman_dielectric_2016}
\citation{foreman_dielectric_2016}
\abx@aux@segm{0}{0}{foreman_dielectric_2016}
\citation{breunig_whispering_2013}
\abx@aux@segm{0}{0}{breunig_whispering_2013}
\citation{breunig_whispering_2013}
\abx@aux@segm{0}{0}{breunig_whispering_2013}
\citation{breunig_whispering_2013}
\abx@aux@segm{0}{0}{breunig_whispering_2013}
\citation{foreman_dielectric_2016}
\abx@aux@segm{0}{0}{foreman_dielectric_2016}
\citation{foreman_dielectric_2016}
\abx@aux@segm{0}{0}{foreman_dielectric_2016}
\citation{foreman_dielectric_2016}
\abx@aux@segm{0}{0}{foreman_dielectric_2016}
\citation{foreman_dielectric_2016}
\abx@aux@segm{0}{0}{foreman_dielectric_2016}
\citation{foreman_dielectric_2016}
\abx@aux@segm{0}{0}{foreman_dielectric_2016}
\citation{foreman_dielectric_2016}
\abx@aux@segm{0}{0}{foreman_dielectric_2016}
\citation{foreman_dielectric_2016}
\abx@aux@segm{0}{0}{foreman_dielectric_2016}
\citation{foreman_dielectric_2016}
\abx@aux@segm{0}{0}{foreman_dielectric_2016}
\citation{foreman_dielectric_2016}
\abx@aux@segm{0}{0}{foreman_dielectric_2016}
\citation{foreman_dielectric_2016}
\abx@aux@segm{0}{0}{foreman_dielectric_2016}
\citation{foreman_dielectric_2016}
\abx@aux@segm{0}{0}{foreman_dielectric_2016}
\citation{foreman_dielectric_2016}
\abx@aux@segm{0}{0}{foreman_dielectric_2016}
\citation{foreman_dielectric_2016}
\abx@aux@segm{0}{0}{foreman_dielectric_2016}
\citation{foreman_dielectric_2016}
\abx@aux@segm{0}{0}{foreman_dielectric_2016}
\citation{foreman_dielectric_2016}
\abx@aux@segm{0}{0}{foreman_dielectric_2016}
\citation{foreman_dielectric_2016}
\abx@aux@segm{0}{0}{foreman_dielectric_2016}
\citation{foreman_dielectric_2016}
\abx@aux@segm{0}{0}{foreman_dielectric_2016}
\citation{li_refractive_1980}
\abx@aux@cite{li_refractive_1980}
\abx@aux@segm{0}{0}{li_refractive_1980}
\citation{green_self-consistent_2008}
\abx@aux@cite{green_self-consistent_2008}
\abx@aux@segm{0}{0}{green_self-consistent_2008}
\citation{marple_refractive_1964}
\abx@aux@cite{marple_refractive_1964}
\abx@aux@segm{0}{0}{marple_refractive_1964}
\citation{debenham_refractive_1984}
\abx@aux@cite{debenham_refractive_1984}
\abx@aux@segm{0}{0}{debenham_refractive_1984}
\citation{malitson_refraction_1962}
\abx@aux@cite{malitson_refraction_1962}
\abx@aux@segm{0}{0}{malitson_refraction_1962}
\citation{malitson_redetermination_1963}
\abx@aux@cite{malitson_redetermination_1963}
\abx@aux@segm{0}{0}{malitson_redetermination_1963}
\citation{foreman_dielectric_2016}
\abx@aux@segm{0}{0}{foreman_dielectric_2016}
\citation{foreman_dielectric_2016}
\abx@aux@segm{0}{0}{foreman_dielectric_2016}
\citation{foreman_dielectric_2016}
\abx@aux@segm{0}{0}{foreman_dielectric_2016}
\citation{foreman_dielectric_2016}
\abx@aux@segm{0}{0}{foreman_dielectric_2016}
\citation{foreman_dielectric_2016}
\abx@aux@segm{0}{0}{foreman_dielectric_2016}
\citation{foreman_dielectric_2016}
\abx@aux@segm{0}{0}{foreman_dielectric_2016}
\citation{li_sideband_2012}
\abx@aux@cite{li_sideband_2012}
\abx@aux@segm{0}{0}{li_sideband_2012}
\citation{foreman_dielectric_2016}
\abx@aux@segm{0}{0}{foreman_dielectric_2016}
\citation{trainor_selective_2018}
\abx@aux@segm{0}{0}{trainor_selective_2018}
\citation{trainor_selective_2018}
\abx@aux@segm{0}{0}{trainor_selective_2018}
\@input{Chapters/Chapter5.aux}
\citation{foreman_dielectric_2016}
\abx@aux@segm{0}{0}{foreman_dielectric_2016}
\@input{Chapters/Chapter6.aux}
\citation{foreman_dielectric_2016}
\abx@aux@segm{0}{0}{foreman_dielectric_2016}
\citation{foreman_dielectric_2016}
\abx@aux@segm{0}{0}{foreman_dielectric_2016}
\citation{foreman_dielectric_2016}
\abx@aux@segm{0}{0}{foreman_dielectric_2016}
\citation{foreman_dielectric_2016}
\abx@aux@segm{0}{0}{foreman_dielectric_2016}
\citation{foreman_dielectric_2016}
\abx@aux@segm{0}{0}{foreman_dielectric_2016}
\citation{foreman_dielectric_2016}
\abx@aux@segm{0}{0}{foreman_dielectric_2016}
\citation{foreman_dielectric_2016}
\abx@aux@segm{0}{0}{foreman_dielectric_2016}
\citation{foreman_dielectric_2016}
\abx@aux@segm{0}{0}{foreman_dielectric_2016}
\citation{foreman_dielectric_2016}
\abx@aux@segm{0}{0}{foreman_dielectric_2016}
\citation{foreman_dielectric_2016}
\abx@aux@segm{0}{0}{foreman_dielectric_2016}
\citation{foreman_dielectric_2016}
\abx@aux@segm{0}{0}{foreman_dielectric_2016}
\citation{foreman_dielectric_2016}
\abx@aux@segm{0}{0}{foreman_dielectric_2016}
\citation{foreman_dielectric_2016}
\abx@aux@segm{0}{0}{foreman_dielectric_2016}
\citation{foreman_dielectric_2016}
\abx@aux@segm{0}{0}{foreman_dielectric_2016}
\@input{Chapters/Chapter7.aux}
\citation{savchenkov_enhancement_2006}
\abx@aux@cite{savchenkov_enhancement_2006}
\abx@aux@segm{0}{0}{savchenkov_enhancement_2006}
\citation{savchenkov_enhancement_2006}
\abx@aux@segm{0}{0}{savchenkov_enhancement_2006}
\citation{savchenkov_enhancement_2006}
\abx@aux@segm{0}{0}{savchenkov_enhancement_2006}
\citation{savchenkov_enhancement_2006}
\abx@aux@segm{0}{0}{savchenkov_enhancement_2006}
\citation{savchenkov_enhancement_2006}
\abx@aux@segm{0}{0}{savchenkov_enhancement_2006}
\citation{savchenkov_enhancement_2006}
\abx@aux@segm{0}{0}{savchenkov_enhancement_2006}
\citation{moretti_temperature_2005}
\abx@aux@cite{moretti_temperature_2005}
\abx@aux@segm{0}{0}{moretti_temperature_2005}
\citation{moretti_temperature_2005}
\abx@aux@segm{0}{0}{moretti_temperature_2005}
\citation{moretti_temperature_2005}
\abx@aux@segm{0}{0}{moretti_temperature_2005}
\citation{moretti_temperature_2005}
\abx@aux@segm{0}{0}{moretti_temperature_2005}
\citation{pignatiello_measurement_2007}
\abx@aux@cite{pignatiello_measurement_2007}
\abx@aux@segm{0}{0}{pignatiello_measurement_2007}
\citation{pignatiello_measurement_2007}
\abx@aux@segm{0}{0}{pignatiello_measurement_2007}
\citation{pignatiello_measurement_2007}
\abx@aux@segm{0}{0}{pignatiello_measurement_2007}
\citation{moretti_temperature_2005}
\abx@aux@segm{0}{0}{moretti_temperature_2005}
\citation{moretti_temperature_2005}
\abx@aux@segm{0}{0}{moretti_temperature_2005}
\citation{foreman_dielectric_2016}
\abx@aux@segm{0}{0}{foreman_dielectric_2016}
\citation{foreman_dielectric_2016}
\abx@aux@segm{0}{0}{foreman_dielectric_2016}
\citation{foreman_dielectric_2016}
\abx@aux@segm{0}{0}{foreman_dielectric_2016}
\@writefile{toc}{\contentsline {chapter}{Bibliography}{109}{appendix*.260}\protected@file@percent }
\abx@aux@refcontextdefaultsdone
\abx@aux@defaultrefcontext{0}{dearsley_exploring_nodate}{none/global//global/global}
\abx@aux@defaultrefcontext{0}{rayleigh_theory_1877}{none/global//global/global}
\abx@aux@defaultrefcontext{0}{mie_beitrage_1908}{none/global//global/global}
\abx@aux@defaultrefcontext{0}{debye_lichtdruck_1909}{none/global//global/global}
\abx@aux@defaultrefcontext{0}{foreman_dielectric_2016}{none/global//global/global}
\abx@aux@defaultrefcontext{0}{vogt_anomalous_2019}{none/global//global/global}
\abx@aux@defaultrefcontext{0}{trainor_selective_2018}{none/global//global/global}
\abx@aux@defaultrefcontext{0}{sedlmeir_experimental_2013}{none/global//global/global}
\abx@aux@defaultrefcontext{0}{gorodetsky_optical_1999}{none/global//global/global}
\abx@aux@defaultrefcontext{0}{knight_phase-matched_1997}{none/global//global/global}
\abx@aux@defaultrefcontext{0}{breunig_whispering_2013}{none/global//global/global}
\abx@aux@defaultrefcontext{0}{werner_control_2018}{none/global//global/global}
\abx@aux@defaultrefcontext{0}{li_refractive_1980}{none/global//global/global}
\abx@aux@defaultrefcontext{0}{green_self-consistent_2008}{none/global//global/global}
\abx@aux@defaultrefcontext{0}{marple_refractive_1964}{none/global//global/global}
\abx@aux@defaultrefcontext{0}{debenham_refractive_1984}{none/global//global/global}
\abx@aux@defaultrefcontext{0}{malitson_refraction_1962}{none/global//global/global}
\abx@aux@defaultrefcontext{0}{malitson_redetermination_1963}{none/global//global/global}
\abx@aux@defaultrefcontext{0}{li_sideband_2012}{none/global//global/global}
\abx@aux@defaultrefcontext{0}{savchenkov_enhancement_2006}{none/global//global/global}
\abx@aux@defaultrefcontext{0}{moretti_temperature_2005}{none/global//global/global}
\abx@aux@defaultrefcontext{0}{pignatiello_measurement_2007}{none/global//global/global}
