\relax 
\providecommand\hyper@newdestlabel[2]{}
\providecommand\HyperFirstAtBeginDocument{\AtBeginDocument}
\HyperFirstAtBeginDocument{\ifx\hyper@anchor\@undefined
\global\let\oldcontentsline\contentsline
\gdef\contentsline#1#2#3#4{\oldcontentsline{#1}{#2}{#3}}
\global\let\oldnewlabel\newlabel
\gdef\newlabel#1#2{\newlabelxx{#1}#2}
\gdef\newlabelxx#1#2#3#4#5#6{\oldnewlabel{#1}{{#2}{#3}}}
\AtEndDocument{\ifx\hyper@anchor\@undefined
\let\contentsline\oldcontentsline
\let\newlabel\oldnewlabel
\fi}
\fi}
\global\let\hyper@last\relax 
\gdef\HyperFirstAtBeginDocument#1{#1}
\providecommand\HyField@AuxAddToFields[1]{}
\providecommand\HyField@AuxAddToCoFields[2]{}
\citation{Strekalov}
\citation{Schunk}
\citation{Foreman}
\@writefile{lof}{\contentsline {figure}{\numberline {1}{\ignorespaces Schematic of the experiment with a SF11 substrate being brought into close proximity with the resonator. The changes to a resonant mode are depicted underneath.}}{1}{figure.1}}
\newlabel{fig:schematic}{{1}{1}{Schematic of the experiment with a SF11 substrate being brought into close proximity with the resonator. The changes to a resonant mode are depicted underneath}{figure.1}{}}
\citation{Foreman}
\bibcite{Strekalov}{1}
\bibcite{Schunk}{2}
\bibcite{Foreman}{3}
